lab_2/Hardcopies/ALL0001/F0001CH1.CSV

Record Length,2.500000e+03,,   0.050000000000,   0.00000,
Sample Interval,2.000000e-04,,   0.050200000000,   0.00000,
Trigger Point,-2.500000000000e+02,,   0.050400000000,   0.00000,
,,,   0.050600000000,   0.00000,
,,,   0.050800000000,   0.00000,
,,,   0.051000000000,   0.00000,
Source,CH1,,   0.051200000000,   0.00000,
Vertical Units,V,,   0.051400000000,   0.00000,
Vertical Scale,2.000000e+00,,   0.051600000000,   0.00000,
Vertical Offset,8.000000e-02,,   0.051800000000,   0.08000,
Horizontal Units,s,,   0.052000000000,   0.08000,
Horizontal Scale,5.000000e-02,,   0.052200000000,   0.08000,
Pt Fmt,Y,,   0.052400000000,   0.08000,
Yzero,0.000000e+00,,   0.052600000000,   0.08000,
Probe Atten,1.000000e+01,,   0.052800000000,   0.08000,
Model Number,TBS1072B-EDU,,   0.053000000000,   0.00000,
Serial Number,C012539,,   0.053200000000,   0.08000,
Firmware Version,FV:v4.06,,   0.053400000000,   0.08000,
,,,0.053600000000,   0.00000,
,,,0.053800000000,   0.00000,
,,,0.054000000000,   0.00000,
,,,0.054200000000,   0.08000,
,,,0.054400000000,   0.00000,
,,,0.054600000000,   0.00000,
,,,0.054800000000,   0.00000,
,,,0.055000000000,   0.00000,
,,,0.055200000000,   0.00000,
,,,0.055400000000,   0.00000,
,,,0.055600000000,   0.00000,
,,,0.055800000000,   0.00000,
,,,0.056000000000,   0.00000,
,,,0.056200000000,   0.00000,
,,,0.056400000000,   0.00000,
,,,0.056600000000,   0.00000,
,,,0.056800000000,   0.00000,
,,,0.057000000000,   0.08000,
,,,0.057200000000,   0.00000,
,,,0.057400000000,   0.08000,
,,,0.057600000000,   0.08000,
,,,0.057800000000,   0.08000,
,,,0.058000000000,   0.00000,
,,,0.058200000000,   0.00000,
,,,0.058400000000,   0.00000,
,,,0.058600000000,   0.00000,
,,,0.058800000000,   0.00000,
,,,0.059000000000,   0.00000,
,,,0.059200000000,   0.00000,
,,,0.059400000000,   0.00000,
,,,0.059600000000,   0.08000,
,,,0.059800000000,   0.00000,
,,,0.060000000000,   0.00000,
,,,0.060200000000,   0.00000,
,,,0.060400000000,   0.00000,
,,,0.060600000000,   0.00000,
,,,0.060800000000,   0.08000,
,,,0.061000000000,   0.08000,
,,,0.061200000000,   0.08000,
,,,0.061400000000,   0.08000,
,,,0.061600000000,   0.08000,
,,,0.061800000000,   0.08000,
,,,0.062000000000,   0.08000,
,,,0.062200000000,   0.00000,
,,,0.062400000000,   0.08000,
,,,0.062600000000,   0.08000,
,,,0.062800000000,   0.00000,
,,,0.063000000000,   0.08000,
,,,0.063200000000,   0.00000,
,,,0.063400000000,   0.00000,
,,,0.063600000000,   0.00000,
,,,0.063800000000,   0.00000,
,,,0.064000000000,   0.00000,
,,,0.064200000000,   0.00000,
,,,0.064400000000,   0.00000,
,,,0.064600000000,   0.00000,
,,,0.064800000000,   0.00000,
,,,0.065000000000,   0.00000,
,,,0.065200000000,   0.08000,
,,,0.065400000000,   0.08000,
,,,0.065600000000,   0.00000,
,,,0.065800000000,   0.08000,
,,,0.066000000000,   0.08000,
,,,0.066200000000,   0.08000,
,,,0.066400000000,   0.00000,
,,,0.066600000000,   0.08000,
,,,0.066800000000,   0.00000,
,,,0.067000000000,   0.00000,
,,,0.067200000000,   0.00000,
,,,0.067400000000,   0.00000,
,,,0.067600000000,   0.00000,
,,,0.067800000000,   0.00000,
,,,0.068000000000,   0.00000,
,,,0.068200000000,   0.00000,
,,,0.068400000000,   0.00000,
,,,0.068600000000,   0.08000,
,,,0.068800000000,   0.00000,
,,,0.069000000000,   0.00000,
,,,0.069200000000,   0.00000,
,,,0.069400000000,   0.08000,
,,,0.069600000000,   0.08000,
,,,0.069800000000,   0.08000,
,,,0.070000000000,   0.08000,
,,,0.070200000000,   0.08000,
,,,0.070400000000,   0.08000,
,,,0.070600000000,   0.08000,
,,,0.070800000000,   0.00000,
,,,0.071000000000,   0.00000,
,,,0.071200000000,   0.00000,
,,,0.071400000000,   0.00000,
,,,0.071600000000,   0.00000,
,,,0.071800000000,   0.00000,
,,,0.072000000000,   0.00000,
,,,0.072200000000,   0.00000,
,,,0.072400000000,   0.00000,
,,,0.072600000000,   0.00000,
,,,0.072800000000,   0.00000,
,,,0.073000000000,   0.08000,
,,,0.073200000000,   0.08000,
,,,0.073400000000,   0.08000,
,,,0.073600000000,   0.08000,
,,,0.073800000000,   0.08000,
,,,0.074000000000,   0.08000,
,,,0.074200000000,   0.08000,
,,,0.074400000000,   0.08000,
,,,0.074600000000,   0.00000,
,,,0.074800000000,   0.00000,
,,,0.075000000000,   0.00000,
,,,0.075200000000,   0.00000,
,,,0.075400000000,  -0.08000,
,,,0.075600000000,   0.00000,
,,,0.075800000000,   0.00000,
,,,0.076000000000,   0.00000,
,,,0.076200000000,   0.00000,
,,,0.076400000000,   0.00000,
,,,0.076600000000,   0.08000,
,,,0.076800000000,   0.08000,
,,,0.077000000000,   0.08000,
,,,0.077200000000,   0.08000,
,,,0.077400000000,   0.08000,
,,,0.077600000000,   0.08000,
,,,0.077800000000,   0.00000,
,,,0.078000000000,   0.00000,
,,,0.078200000000,   0.00000,
,,,0.078400000000,   0.00000,
,,,0.078600000000,   0.00000,
,,,0.078800000000,  -0.08000,
,,,0.079000000000,   0.00000,
,,,0.079200000000,   0.00000,
,,,0.079400000000,   0.00000,
,,,0.079600000000,   0.00000,
,,,0.079800000000,   0.08000,
,,,0.080000000000,   0.08000,
,,,0.080200000000,   0.08000,
,,,0.080400000000,   0.08000,
,,,0.080600000000,   0.08000,
,,,0.080800000000,   0.00000,
,,,0.081000000000,   0.00000,
,,,0.081200000000,   0.00000,
,,,0.081400000000,   0.00000,
,,,0.081600000000,   0.00000,
,,,0.081800000000,   0.00000,
,,,0.082000000000,   0.00000,
,,,0.082200000000,   0.00000,
,,,0.082400000000,   0.00000,
,,,0.082600000000,   0.00000,
,,,0.082800000000,   0.00000,
,,,0.083000000000,   0.00000,
,,,0.083200000000,   0.08000,
,,,0.083400000000,   0.08000,
,,,0.083600000000,   0.08000,
,,,0.083800000000,   0.08000,
,,,0.084000000000,   0.08000,
,,,0.084200000000,   0.08000,
,,,0.084400000000,   0.00000,
,,,0.084600000000,   0.00000,
,,,0.084800000000,   0.00000,
,,,0.085000000000,   0.00000,
,,,0.085200000000,   0.00000,
,,,0.085400000000,  -0.08000,
,,,0.085600000000,   0.00000,
,,,0.085800000000,   0.00000,
,,,0.086000000000,   0.00000,
,,,0.086200000000,   0.00000,
,,,0.086400000000,   0.08000,
,,,0.086600000000,   0.08000,
,,,0.086800000000,   0.08000,
,,,0.087000000000,   0.08000,
,,,0.087200000000,   0.08000,
,,,0.087400000000,   0.08000,
,,,0.087600000000,   0.00000,
,,,0.087800000000,   0.00000,
,,,0.088000000000,   0.00000,
,,,0.088200000000,   0.00000,
,,,0.088400000000,   0.00000,
,,,0.088600000000,   0.00000,
,,,0.088800000000,  -0.08000,
,,,0.089000000000,   0.08000,
,,,0.089200000000,   0.00000,
,,,0.089400000000,   0.08000,
,,,0.089600000000,   0.16000,
,,,0.089800000000,   0.08000,
,,,0.090000000000,   0.08000,
,,,0.090200000000,   0.08000,
,,,0.090400000000,   0.08000,
,,,0.090600000000,   0.00000,
,,,0.090800000000,   0.00000,
,,,0.091000000000,   0.00000,
,,,0.091200000000,  -0.08000,
,,,0.091400000000,   0.00000,
,,,0.091600000000,   0.00000,
,,,0.091800000000,   0.00000,
,,,0.092000000000,   0.08000,
,,,0.092200000000,   0.08000,
,,,0.092400000000,   0.08000,
,,,0.092600000000,   0.08000,
,,,0.092800000000,   0.08000,
,,,0.093000000000,   0.08000,
,,,0.093200000000,   0.08000,
,,,0.093400000000,   0.00000,
,,,0.093600000000,   0.00000,
,,,0.093800000000,  -0.08000,
,,,0.094000000000,  -0.08000,
,,,0.094200000000,   0.00000,
,,,0.094400000000,   0.00000,
,,,0.094600000000,   0.00000,
,,,0.094800000000,   0.08000,
,,,0.095000000000,   0.08000,
,,,0.095200000000,   0.08000,
,,,0.095400000000,   0.08000,
,,,0.095600000000,   0.08000,
,,,0.095800000000,   0.08000,
,,,0.096000000000,   0.08000,
,,,0.096200000000,   0.00000,
,,,0.096400000000,   0.00000,
,,,0.096600000000,  -0.08000,
,,,0.096800000000,  -0.08000,
,,,0.097000000000,  -0.08000,
,,,0.097200000000,   0.00000,
,,,0.097400000000,   0.08000,
,,,0.097600000000,   0.08000,
,,,0.097800000000,   0.08000,
,,,0.098000000000,   0.08000,
,,,0.098200000000,   0.08000,
,,,0.098400000000,   0.08000,
,,,0.098600000000,   0.00000,
,,,0.098800000000,   0.00000,
,,,0.099000000000,   0.00000,
,,,0.099200000000,  -0.08000,
,,,0.099400000000,  -0.08000,
,,,0.099600000000,  -0.08000,
,,,0.099800000000,   0.00000,
,,,0.100000000000,   0.00000,
,,,0.100200000000,   0.08000,
,,,0.100400000000,   0.08000,
,,,0.100600000000,   0.16000,
,,,0.100800000000,   0.08000,
,,,0.101000000000,   0.08000,
,,,0.101200000000,   0.00000,
,,,0.101400000000,  -0.08000,
,,,0.101600000000,   0.00000,
,,,0.101800000000,  -0.08000,
,,,0.102000000000,   0.00000,
,,,0.102200000000,   0.00000,
,,,0.102400000000,   0.00000,
,,,0.102600000000,   0.08000,
,,,0.102800000000,   0.08000,
,,,0.103000000000,   0.16000,
,,,0.103200000000,   0.08000,
,,,0.103400000000,   0.08000,
,,,0.103600000000,   0.00000,
,,,0.103800000000,   0.00000,
,,,0.104000000000,  -0.08000,
,,,0.104200000000,  -0.08000,
,,,0.104400000000,  -0.08000,
,,,0.104600000000,   0.00000,
,,,0.104800000000,   0.08000,
,,,0.105000000000,   0.08000,
,,,0.105200000000,   0.08000,
,,,0.105400000000,   0.16000,
,,,0.105600000000,   0.08000,
,,,0.105800000000,   0.08000,
,,,0.106000000000,   0.00000,
,,,0.106200000000,  -0.08000,
,,,0.106400000000,  -0.08000,
,,,0.106600000000,  -0.08000,
,,,0.106800000000,  -0.08000,
,,,0.107000000000,   0.00000,
,,,0.107200000000,   0.00000,
,,,0.107400000000,   0.16000,
,,,0.107600000000,   0.16000,
,,,0.107800000000,   0.16000,
,,,0.108000000000,   0.08000,
,,,0.108200000000,   0.00000,
,,,0.108400000000,  -0.08000,
,,,0.108600000000,  -0.08000,
,,,0.108800000000,  -0.08000,
,,,0.109000000000,  -0.08000,
,,,0.109200000000,   0.00000,
,,,0.109400000000,   0.08000,
,,,0.109600000000,   0.08000,
,,,0.109800000000,   0.16000,
,,,0.110000000000,   0.08000,
,,,0.110200000000,   0.08000,
,,,0.110400000000,   0.08000,
,,,0.110600000000,   0.00000,
,,,0.110800000000,  -0.08000,
,,,0.111000000000,  -0.08000,
,,,0.111200000000,  -0.08000,
,,,0.111400000000,   0.00000,
,,,0.111600000000,   0.00000,
,,,0.111800000000,   0.16000,
,,,0.112000000000,   0.16000,
,,,0.112200000000,   0.16000,
,,,0.112400000000,   0.08000,
,,,0.112600000000,   0.08000,
,,,0.112800000000,  -0.08000,
,,,0.113000000000,  -0.08000,
,,,0.113200000000,  -0.08000,
,,,0.113400000000,  -0.08000,
,,,0.113600000000,   0.00000,
,,,0.113800000000,   0.08000,
,,,0.114000000000,   0.16000,
,,,0.114200000000,   0.16000,
,,,0.114400000000,   0.16000,
,,,0.114600000000,   0.08000,
,,,0.114800000000,   0.00000,
,,,0.115000000000,  -0.08000,
,,,0.115200000000,  -0.08000,
,,,0.115400000000,  -0.08000,
,,,0.115600000000,   0.00000,
,,,0.115800000000,   0.08000,
,,,0.116000000000,   0.08000,
,,,0.116200000000,   0.16000,
,,,0.116400000000,   0.16000,
,,,0.116600000000,   0.08000,
,,,0.116800000000,   0.00000,
,,,0.117000000000,  -0.08000,
,,,0.117200000000,  -0.08000,
,,,0.117400000000,  -0.08000,
,,,0.117600000000,   0.00000,
,,,0.117800000000,   0.08000,
,,,0.118000000000,   0.16000,
,,,0.118200000000,   0.16000,
,,,0.118400000000,   0.16000,
,,,0.118600000000,   0.08000,
,,,0.118800000000,   0.00000,
,,,0.119000000000,  -0.16000,
,,,0.119200000000,  -0.08000,
,,,0.119400000000,  -0.08000,
,,,0.119600000000,   0.00000,
,,,0.119800000000,   0.08000,
,,,0.120000000000,   0.16000,
,,,0.120200000000,   0.16000,
,,,0.120400000000,   0.08000,
,,,0.120600000000,   0.00000,
,,,0.120800000000,  -0.08000,
,,,0.121000000000,  -0.16000,
,,,0.121200000000,  -0.08000,
,,,0.121400000000,   0.00000,
,,,0.121600000000,   0.00000,
,,,0.121800000000,   0.08000,
,,,0.122000000000,   0.16000,
,,,0.122200000000,   0.08000,
,,,0.122400000000,   0.08000,
,,,0.122600000000,  -0.08000,
,,,0.122800000000,  -0.08000,
,,,0.123000000000,  -0.08000,
,,,0.123200000000,  -0.08000,
,,,0.123400000000,   0.00000,
,,,0.123600000000,   0.16000,
,,,0.123800000000,   0.16000,
,,,0.124000000000,   0.16000,
,,,0.124200000000,   0.08000,
,,,0.124400000000,   0.00000,
,,,0.124600000000,  -0.08000,
,,,0.124800000000,  -0.16000,
,,,0.125000000000,  -0.08000,
,,,0.125200000000,   0.00000,
,,,0.125400000000,   0.08000,
,,,0.125600000000,   0.16000,
,,,0.125800000000,   0.16000,
,,,0.126000000000,   0.08000,
,,,0.126200000000,   0.00000,
,,,0.126400000000,  -0.16000,
,,,0.126600000000,  -0.16000,
,,,0.126800000000,  -0.08000,
,,,0.127000000000,   0.08000,
,,,0.127200000000,   0.16000,
,,,0.127400000000,   0.24000,
,,,0.127600000000,   0.16000,
,,,0.127800000000,   0.00000,
,,,0.128000000000,  -0.08000,
,,,0.128200000000,  -0.16000,
,,,0.128400000000,  -0.16000,
,,,0.128600000000,   0.00000,
,,,0.128800000000,   0.08000,
,,,0.129000000000,   0.24000,
,,,0.129200000000,   0.16000,
,,,0.129400000000,   0.08000,
,,,0.129600000000,   0.00000,
,,,0.129800000000,  -0.16000,
,,,0.130000000000,  -0.16000,
,,,0.130200000000,  -0.08000,
,,,0.130400000000,   0.08000,
,,,0.130600000000,   0.24000,
,,,0.130800000000,   0.24000,
,,,0.131000000000,   0.16000,
,,,0.131200000000,   0.00000,
,,,0.131400000000,  -0.16000,
,,,0.131600000000,  -0.16000,
,,,0.131800000000,  -0.16000,
,,,0.132000000000,   0.00000,
,,,0.132200000000,   0.16000,
,,,0.132400000000,   0.24000,
,,,0.132600000000,   0.16000,
,,,0.132800000000,   0.00000,
,,,0.133000000000,  -0.08000,
,,,0.133200000000,  -0.16000,
,,,0.133400000000,  -0.16000,
,,,0.133600000000,   0.08000,
,,,0.133800000000,   0.16000,
,,,0.134000000000,   0.24000,
,,,0.134200000000,   0.16000,
,,,0.134400000000,   0.00000,
,,,0.134600000000,  -0.08000,
,,,0.134800000000,  -0.16000,
,,,0.135000000000,  -0.08000,
,,,0.135200000000,   0.08000,
,,,0.135400000000,   0.16000,
,,,0.135600000000,   0.24000,
,,,0.135800000000,   0.08000,
,,,0.136000000000,   0.00000,
,,,0.136200000000,  -0.16000,
,,,0.136400000000,  -0.16000,
,,,0.136600000000,  -0.08000,
,,,0.136800000000,   0.16000,
,,,0.137000000000,   0.24000,
,,,0.137200000000,   0.24000,
,,,0.137400000000,   0.08000,
,,,0.137600000000,  -0.08000,
,,,0.137800000000,  -0.24000,
,,,0.138000000000,  -0.16000,
,,,0.138200000000,   0.00000,
,,,0.138400000000,   0.16000,
,,,0.138600000000,   0.24000,
,,,0.138800000000,   0.16000,
,,,0.139000000000,  -0.08000,
,,,0.139200000000,  -0.24000,
,,,0.139400000000,  -0.16000,
,,,0.139600000000,  -0.08000,
,,,0.139800000000,   0.16000,
,,,0.140000000000,   0.32000,
,,,0.140200000000,   0.24000,
,,,0.140400000000,   0.00000,
,,,0.140600000000,  -0.16000,
,,,0.140800000000,  -0.24000,
,,,0.141000000000,  -0.08000,
,,,0.141200000000,   0.08000,
,,,0.141400000000,   0.32000,
,,,0.141600000000,   0.24000,
,,,0.141800000000,   0.08000,
,,,0.142000000000,  -0.16000,
,,,0.142200000000,  -0.24000,
,,,0.142400000000,  -0.16000,
,,,0.142600000000,   0.08000,
,,,0.142800000000,   0.32000,
,,,0.143000000000,   0.24000,
,,,0.143200000000,   0.08000,
,,,0.143400000000,  -0.16000,
,,,0.143600000000,  -0.24000,
,,,0.143800000000,  -0.08000,
,,,0.144000000000,   0.16000,
,,,0.144200000000,   0.32000,
,,,0.144400000000,   0.24000,
,,,0.144600000000,   0.08000,
,,,0.144800000000,  -0.16000,
,,,0.145000000000,  -0.24000,
,,,0.145200000000,  -0.08000,
,,,0.145400000000,   0.16000,
,,,0.145600000000,   0.24000,
,,,0.145800000000,   0.24000,
,,,0.146000000000,   0.00000,
,,,0.146200000000,  -0.24000,
,,,0.146400000000,  -0.24000,
,,,0.146600000000,   0.00000,
,,,0.146800000000,   0.24000,
,,,0.147000000000,   0.32000,
,,,0.147200000000,   0.08000,
,,,0.147400000000,  -0.16000,
,,,0.147600000000,  -0.24000,
,,,0.147800000000,  -0.16000,
,,,0.148000000000,   0.16000,
,,,0.148200000000,   0.32000,
,,,0.148400000000,   0.24000,
,,,0.148600000000,   0.00000,
,,,0.148800000000,  -0.24000,
,,,0.149000000000,  -0.24000,
,,,0.149200000000,   0.00000,
,,,0.149400000000,   0.24000,
,,,0.149600000000,   0.32000,
,,,0.149800000000,   0.16000,
,,,0.150000000000,  -0.16000,
,,,0.150200000000,  -0.32000,
,,,0.150400000000,  -0.16000,
,,,0.150600000000,   0.24000,
,,,0.150800000000,   0.32000,
,,,0.151000000000,   0.24000,
,,,0.151200000000,  -0.08000,
,,,0.151400000000,  -0.32000,
,,,0.151600000000,  -0.16000,
,,,0.151800000000,   0.16000,
,,,0.152000000000,   0.40000,
,,,0.152200000000,   0.24000,
,,,0.152400000000,  -0.08000,
,,,0.152600000000,  -0.32000,
,,,0.152800000000,  -0.24000,
,,,0.153000000000,   0.08000,
,,,0.153200000000,   0.32000,
,,,0.153400000000,   0.24000,
,,,0.153600000000,  -0.08000,
,,,0.153800000000,  -0.32000,
,,,0.154000000000,  -0.24000,
,,,0.154200000000,   0.08000,
,,,0.154400000000,   0.32000,
,,,0.154600000000,   0.24000,
,,,0.154800000000,  -0.08000,
,,,0.155000000000,  -0.32000,
,,,0.155200000000,  -0.24000,
,,,0.155400000000,   0.16000,
,,,0.155600000000,   0.32000,
,,,0.155800000000,   0.24000,
,,,0.156000000000,  -0.08000,
,,,0.156200000000,  -0.32000,
,,,0.156400000000,  -0.16000,
,,,0.156600000000,   0.16000,
,,,0.156800000000,   0.40000,
,,,0.157000000000,   0.16000,
,,,0.157200000000,  -0.16000,
,,,0.157400000000,  -0.32000,
,,,0.157600000000,  -0.08000,
,,,0.157800000000,   0.32000,
,,,0.158000000000,   0.32000,
,,,0.158200000000,   0.08000,
,,,0.158400000000,  -0.32000,
,,,0.158600000000,  -0.32000,
,,,0.158800000000,   0.08000,
,,,0.159000000000,   0.40000,
,,,0.159200000000,   0.32000,
,,,0.159400000000,  -0.16000,
,,,0.159600000000,  -0.40000,
,,,0.159800000000,  -0.16000,
,,,0.160000000000,   0.24000,
,,,0.160200000000,   0.40000,
,,,0.160400000000,   0.08000,
,,,0.160600000000,  -0.32000,
,,,0.160800000000,  -0.32000,
,,,0.161000000000,   0.08000,
,,,0.161200000000,   0.40000,
,,,0.161400000000,   0.32000,
,,,0.161600000000,  -0.16000,
,,,0.161800000000,  -0.40000,
,,,0.162000000000,  -0.08000,
,,,0.162200000000,   0.32000,
,,,0.162400000000,   0.40000,
,,,0.162600000000,   0.00000,
,,,0.162800000000,  -0.40000,
,,,0.163000000000,  -0.24000,
,,,0.163200000000,   0.24000,
,,,0.163400000000,   0.40000,
,,,0.163600000000,   0.16000,
,,,0.163800000000,  -0.32000,
,,,0.164000000000,  -0.32000,
,,,0.164200000000,   0.16000,
,,,0.164400000000,   0.40000,
,,,0.164600000000,   0.24000,
,,,0.164800000000,  -0.32000,
,,,0.165000000000,  -0.40000,
,,,0.165200000000,   0.00000,
,,,0.165400000000,   0.40000,
,,,0.165600000000,   0.32000,
,,,0.165800000000,  -0.24000,
,,,0.166000000000,  -0.40000,
,,,0.166200000000,  -0.08000,
,,,0.166400000000,   0.40000,
,,,0.166600000000,   0.32000,
,,,0.166800000000,  -0.24000,
,,,0.167000000000,  -0.40000,
,,,0.167200000000,  -0.08000,
,,,0.167400000000,   0.48000,
,,,0.167600000000,   0.32000,
,,,0.167800000000,  -0.24000,
,,,0.168000000000,  -0.48000,
,,,0.168200000000,   0.00000,
,,,0.168400000000,   0.48000,
,,,0.168600000000,   0.32000,
,,,0.168800000000,  -0.32000,
,,,0.169000000000,  -0.48000,
,,,0.169200000000,   0.08000,
,,,0.169400000000,   0.48000,
,,,0.169600000000,   0.24000,
,,,0.169800000000,  -0.40000,
,,,0.170000000000,  -0.40000,
,,,0.170200000000,   0.16000,
,,,0.170400000000,   0.48000,
,,,0.170600000000,   0.08000,
,,,0.170800000000,  -0.48000,
,,,0.171000000000,  -0.32000,
,,,0.171200000000,   0.32000,
,,,0.171400000000,   0.48000,
,,,0.171600000000,  -0.08000,
,,,0.171800000000,  -0.48000,
,,,0.172000000000,  -0.08000,
,,,0.172200000000,   0.48000,
,,,0.172400000000,   0.32000,
,,,0.172600000000,  -0.32000,
,,,0.172800000000,  -0.48000,
,,,0.173000000000,   0.16000,
,,,0.173200000000,   0.56000,
,,,0.173400000000,   0.08000,
,,,0.173600000000,  -0.48000,
,,,0.173800000000,  -0.24000,
,,,0.174000000000,   0.48000,
,,,0.174200000000,   0.40000,
,,,0.174400000000,  -0.24000,
,,,0.174600000000,  -0.56000,
,,,0.174800000000,   0.08000,
,,,0.175000000000,   0.56000,
,,,0.175200000000,   0.16000,
,,,0.175400000000,  -0.56000,
,,,0.175600000000,  -0.24000,
,,,0.175800000000,   0.48000,
,,,0.176000000000,   0.40000,
,,,0.176200000000,  -0.32000,
,,,0.176400000000,  -0.48000,
,,,0.176600000000,   0.24000,
,,,0.176800000000,   0.56000,
,,,0.177000000000,   0.00000,
,,,0.177200000000,  -0.56000,
,,,0.177400000000,  -0.08000,
,,,0.177600000000,   0.64000,
,,,0.177800000000,   0.24000,
,,,0.178000000000,  -0.48000,
,,,0.178200000000,  -0.32000,
,,,0.178400000000,   0.48000,
,,,0.178600000000,   0.48000,
,,,0.178800000000,  -0.40000,
,,,0.179000000000,  -0.48000,
,,,0.179200000000,   0.32000,
,,,0.179400000000,   0.56000,
,,,0.179600000000,  -0.16000,
,,,0.179800000000,  -0.56000,
,,,0.180000000000,   0.16000,
,,,0.180200000000,   0.64000,
,,,0.180400000000,   0.00000,
,,,0.180600000000,  -0.64000,
