lab_3/Hardcopies/ALL0011/F0011FFT.CSV

Record Length,1.024000e+03,,          0.00000, -39.38970,
Sample Interval,1.233033e+02,,        123.30335, -37.78970,
Trigger Point,-0.000000000000e+00,,        246.60669, -43.38970,
,,,        369.91004, -51.78970,
,,,        493.21338, -51.78970,
,,,        616.51673, -36.98970,
Source,FFT,,        739.82008,  -9.38970,
Vertical Units,dB,,        863.12342,  -1.78970,
Vertical Scale,1.000000e+01,,        986.42677,  -0.98970,
Vertical Offset,0.000000e+00,,       1109.73011,  -0.98970,
Horizontal Units,Hz,,       1233.03346,  -6.58970,
Horizontal Scale,1.262626e+04,,       1356.33681, -34.18970,
Pt Fmt,Y,,       1479.64015, -49.38970,
Yzero,-2.698970e+01,,       1602.94350, -50.58970,
Probe Atten,1.000000e+00,,       1726.24684, -66.98970,
Model Number,TBS1072B-EDU,,       1849.55019, -64.58970,
Serial Number,C012539,,       1972.85354, -66.98970,
Firmware Version,FV:v4.06,,       2096.15688, -64.58970,
,,,2219.46023, -66.98970,
,,,2342.76358, -54.98970,
,,,2466.06693, -54.98970,
,,,2589.37028, -40.98970,
,,,2712.67363, -22.98970,
,,,2835.97698, -12.18970,
,,,2959.28033, -10.18970,
,,,3082.58368, -10.58970,
,,,3205.88703, -14.18970,
,,,3329.19038, -31.78970,
,,,3452.49373, -48.18970,
,,,3575.79708, -50.18970,
,,,3699.10043, -66.98970,
,,,3822.40378, -64.58970,
,,,3945.70713, -66.98970,
,,,4069.01048, -66.98970,
,,,4192.31383, -66.98970,
,,,4315.61718, -60.58970,
,,,4438.92053, -64.58970,
,,,4562.22388, -45.78970,
,,,4685.52723, -32.58970,
,,,4808.83058, -17.78970,
,,,4932.13393, -14.98970,
,,,5055.43728, -14.98970,
,,,5178.74063, -16.98970,
,,,5302.04398, -29.38970,
,,,5425.34733, -49.38970,
,,,5548.65068, -52.98970,
,,,5671.95403, -64.58970,
,,,5795.25738, -66.98970,
,,,5918.56073, -66.98970,
,,,6041.86408, -66.98970,
,,,6165.16743, -66.98970,
,,,6288.47078, -60.58970,
,,,6411.77413, -64.58970,
,,,6535.07748, -51.78970,
,,,6658.38083, -44.58970,
,,,6781.68418, -22.18970,
,,,6904.98753, -18.18970,
,,,7028.29088, -17.78970,
,,,7151.59423, -18.98970,
,,,7274.89758, -28.18970,
,,,7398.20093, -53.38970,
,,,7521.50428, -52.98970,
,,,7644.80763, -60.58970,
,,,7768.11098, -66.98970,
,,,7891.41433, -66.98970,
,,,8014.71768, -66.98970,
,,,8138.02103, -66.98970,
,,,8261.32438, -66.98970,
,,,8384.62773, -64.58970,
,,,8507.93108, -60.58970,
,,,8631.23443, -60.58970,
,,,8754.53778, -26.98970,
,,,8877.84113, -20.58970,
,,,9001.14448, -19.78970,
,,,9124.44783, -20.58970,
,,,9247.75118, -26.98970,
,,,9371.05453, -58.58970,
,,,9494.35788, -56.18970,
,,,9617.66123, -58.58970,
,,,9740.96458, -66.98970,
,,,9864.26793, -66.98970,
,,,9987.57128, -66.98970,
,,,10110.87463, -66.98970,
,,,10234.17798, -66.98970,
,,,10357.48133, -57.38970,
,,,10480.78468, -60.58970,
,,,10604.08803, -51.78970,
,,,10727.39138, -31.78970,
,,,10850.69473, -22.98970,
,,,10973.99808, -21.78970,
,,,11097.30143, -21.78970,
,,,11220.60478, -26.58970,
,,,11343.90813, -46.18970,
,,,11467.21148, -61.38970,
,,,11590.51483, -54.58970,
,,,11713.81818, -66.98970,
,,,11837.12153, -66.98970,
,,,11960.42488, -66.98970,
,,,12083.72823, -66.98970,
,,,12207.03158, -66.98970,
,,,12330.33493, -60.58970,
,,,12453.63828, -64.58970,
,,,12576.94163, -51.78970,
,,,12700.24498, -38.18970,
,,,12823.54833, -25.38970,
,,,12946.85168, -22.98970,
,,,13070.15503, -22.98970,
,,,13193.45838, -26.18970,
,,,13316.76173, -40.18970,
,,,13440.06508, -64.58970,
,,,13563.36843, -56.18970,
,,,13686.67178, -66.98970,
,,,13809.97513, -66.98970,
,,,13933.27848, -66.98970,
,,,14056.58183, -66.98970,
,,,14179.88518, -66.98970,
,,,14303.18853, -66.98970,
,,,14426.49188, -60.58970,
,,,14549.79523, -54.98970,
,,,14673.09858, -46.98970,
,,,14796.40193, -28.18970,
,,,14919.70528, -24.58970,
,,,15043.00863, -24.18970,
,,,15166.31198, -26.18970,
,,,15289.61533, -36.58970,
,,,15412.91868, -60.58970,
,,,15536.22203, -54.58970,
,,,15659.52538, -60.58970,
,,,15782.82873, -61.38970,
,,,15906.13208, -66.98970,
,,,16029.43543, -66.98970,
,,,16152.73878, -66.98970,
,,,16276.04213, -66.98970,
,,,16399.34548, -64.58970,
,,,16522.64883, -57.38970,
,,,16645.95218, -58.58970,
,,,16769.25553, -30.98970,
,,,16892.55888, -25.78970,
,,,17015.86223, -25.38970,
,,,17139.16558, -26.18970,
,,,17262.46893, -34.18970,
,,,17385.77228, -60.58970,
,,,17509.07563, -54.98970,
,,,17632.37898, -60.58970,
,,,17755.68233, -61.38970,
,,,17878.98568, -64.58970,
,,,18002.28903, -66.98970,
,,,18125.59238, -66.98970,
,,,18248.89573, -66.98970,
,,,18372.19908, -60.58970,
,,,18495.50243, -61.38970,
,,,18618.80578, -57.38970,
,,,18742.10913, -34.98970,
,,,18865.41248, -27.38970,
,,,18988.71583, -26.58970,
,,,19112.01918, -26.98970,
,,,19235.32253, -32.18970,
,,,19358.62588, -54.58970,
,,,19481.92923, -58.58970,
,,,19605.23258, -54.98970,
,,,19728.53593, -60.58970,
,,,19851.83928, -66.98970,
,,,19975.14263, -64.58970,
,,,20098.44598, -66.98970,
,,,20221.74933, -66.98970,
,,,20345.05268, -60.58970,
,,,20468.35603, -66.98970,
,,,20591.65938, -53.38970,
,,,20714.96273, -39.78970,
,,,20838.26608, -28.98970,
,,,20961.56943, -27.38970,
,,,21084.87278, -27.38970,
,,,21208.17613, -30.98970,
,,,21331.47948, -46.98970,
,,,21454.78283, -58.58970,
,,,21578.08618, -56.18970,
,,,21701.38953, -60.58970,
,,,21824.69288, -66.98970,
,,,21947.99623, -66.98970,
,,,22071.29958, -66.98970,
,,,22194.60293, -66.98970,
,,,22317.90628, -60.58970,
,,,22441.20963, -60.58970,
,,,22564.51298, -55.38970,
,,,22687.81633, -46.98970,
,,,22811.11968, -30.98970,
,,,22934.42303, -28.18970,
,,,23057.72638, -28.18970,
,,,23181.02973, -30.18970,
,,,23304.33308, -42.18970,
,,,23427.63643, -61.38970,
,,,23550.93978, -54.98970,
,,,23674.24313, -58.58970,
,,,23797.54648, -66.98970,
,,,23920.84983, -66.98970,
,,,24044.15318, -66.98970,
,,,24167.45653, -64.58970,
,,,24290.75988, -66.98970,
,,,24414.06323, -64.58970,
,,,24537.36658, -60.58970,
,,,24660.66993, -56.18970,
,,,24783.97328, -33.38970,
,,,24907.27663, -28.98970,
,,,25030.57998, -28.98970,
,,,25153.88333, -30.18970,
,,,25277.18668, -38.98970,
,,,25400.49003, -61.38970,
,,,25523.79338, -54.98970,
,,,25647.09673, -56.18970,
,,,25770.40008, -66.98970,
,,,25893.70343, -64.58970,
,,,26017.00678, -66.98970,
,,,26140.31013, -64.58970,
,,,26263.61348, -66.98970,
,,,26386.91683, -60.58970,
,,,26510.22018, -66.98970,
,,,26633.52353, -60.58970,
,,,26756.82688, -36.58970,
,,,26880.13023, -30.18970,
,,,27003.43358, -29.38970,
,,,27126.73693, -30.18970,
,,,27250.04028, -36.58970,
,,,27373.34363, -58.58970,
,,,27496.64698, -54.98970,
,,,27619.95033, -56.18970,
,,,27743.25368, -60.58970,
,,,27866.55703, -66.98970,
,,,27989.86038, -66.98970,
,,,28113.16373, -66.98970,
,,,28236.46708, -66.98970,
,,,28359.77043, -64.58970,
,,,28483.07378, -60.58970,
,,,28606.37713, -57.78970,
,,,28729.68048, -40.58970,
,,,28852.98383, -31.38970,
,,,28976.28718, -30.18970,
,,,29099.59053, -30.18970,
,,,29222.89388, -34.98970,
,,,29346.19723, -52.18970,
,,,29469.50058, -58.58970,
,,,29592.80393, -54.98970,
,,,29716.10728, -60.58970,
,,,29839.41063, -61.38970,
,,,29962.71398, -64.58970,
,,,30086.01733, -64.58970,
,,,30209.32068, -66.98970,
,,,30332.62403, -64.58970,
,,,30455.92738, -66.98970,
,,,30579.23073, -57.78970,
,,,30702.53408, -45.38970,
,,,30825.83743, -32.98970,
,,,30949.14078, -30.58970,
,,,31072.44413, -30.98970,
,,,31195.74748, -33.78970,
,,,31319.05083, -46.58970,
,,,31442.35418, -60.58970,
,,,31565.65753, -52.58970,
,,,31688.96088, -58.58970,
,,,31812.26423, -60.58970,
,,,31935.56758, -64.58970,
,,,32058.87093, -66.98970,
,,,32182.17428, -66.98970,
,,,32305.47763, -64.58970,
,,,32428.78098, -64.58970,
,,,32552.08433, -57.78970,
,,,32675.38768, -53.38970,
,,,32798.69103, -34.98970,
,,,32921.99438, -31.38970,
,,,33045.29773, -31.38970,
,,,33168.60108, -32.98970,
,,,33291.90443, -42.58970,
,,,33415.20778, -60.58970,
,,,33538.51113, -53.38970,
,,,33661.81448, -56.18970,
,,,33785.11783, -61.38970,
,,,33908.42118, -64.58970,
,,,34031.72453, -66.98970,
,,,34155.02788, -64.58970,
,,,34278.33123, -66.98970,
,,,34401.63458, -61.38970,
,,,34524.93793, -57.38970,
,,,34648.24128, -66.98970,
,,,34771.54463, -37.38970,
,,,34894.84798, -32.18970,
,,,35018.15133, -31.78970,
,,,35141.45468, -32.58970,
,,,35264.75803, -40.18970,
,,,35388.06138, -58.58970,
,,,35511.36473, -54.98970,
,,,35634.66808, -56.18970,
,,,35757.97143, -60.58970,
,,,35881.27478, -64.58970,
,,,36004.57813, -66.98970,
,,,36127.88148, -66.98970,
,,,36251.18483, -66.98970,
,,,36374.48818, -64.58970,
,,,36497.79153, -64.58970,
,,,36621.09488, -61.38970,
,,,36744.39823, -40.98970,
,,,36867.70158, -32.98970,
,,,36991.00493, -32.18970,
,,,37114.30828, -32.58970,
,,,37237.61163, -37.78970,
,,,37360.91498, -53.38970,
,,,37484.21833, -54.98970,
,,,37607.52168, -54.98970,
,,,37730.82503, -58.58970,
,,,37854.12838, -64.58970,
,,,37977.43173, -66.98970,
,,,38100.73508, -66.98970,
,,,38224.03843, -66.98970,
,,,38347.34178, -61.38970,
,,,38470.64513, -64.58970,
,,,38593.94848, -57.78970,
,,,38717.25183, -45.38970,
,,,38840.55518, -34.58970,
,,,38963.85853, -32.98970,
,,,39087.16188, -32.98970,
,,,39210.46523, -36.58970,
,,,39333.76858, -50.18970,
,,,39457.07193, -56.18970,
,,,39580.37528, -54.98970,
,,,39703.67863, -56.18970,
,,,39826.98198, -66.98970,
,,,39950.28533, -66.98970,
,,,40073.58868, -66.98970,
,,,40196.89203, -66.98970,
,,,40320.19538, -64.58970,
,,,40443.49873, -64.58970,
,,,40566.80208, -57.78970,
,,,40690.10543, -51.38970,
,,,40813.40878, -36.18970,
,,,40936.71213, -33.38970,
,,,41060.01548, -33.38970,
,,,41183.31883, -35.38970,
,,,41306.62218, -46.58970,
,,,41429.92553, -54.98970,
,,,41553.22888, -53.38970,
,,,41676.53223, -56.18970,
,,,41799.83558, -60.58970,
,,,41923.13893, -64.58970,
,,,42046.44228, -64.58970,
,,,42169.74563, -66.98970,
,,,42293.04898, -66.98970,
,,,42416.35233, -64.58970,
,,,42539.65568, -60.58970,
,,,42662.95903, -60.58970,
,,,42786.26238, -38.18970,
,,,42909.56573, -33.78970,
,,,43032.86908, -33.78970,
,,,43156.17243, -34.98970,
,,,43279.47578, -43.38970,
,,,43402.77913, -56.18970,
,,,43526.08248, -53.38970,
,,,43649.38583, -54.98970,
,,,43772.68918, -60.58970,
,,,43895.99253, -64.58970,
,,,44019.29588, -66.98970,
,,,44142.59923, -66.98970,
,,,44265.90258, -66.98970,
,,,44389.20593, -64.58970,
,,,44512.50928, -61.38970,
,,,44635.81263, -64.58970,
,,,44759.11598, -40.98970,
,,,44882.41933, -34.58970,
,,,45005.72268, -34.18970,
,,,45129.02603, -34.58970,
,,,45252.32938, -40.58970,
,,,45375.63273, -54.98970,
,,,45498.93608, -53.38970,
,,,45622.23943, -53.38970,
,,,45745.54278, -58.58970,
,,,45868.84613, -60.58970,
,,,45992.14948, -64.58970,
,,,46115.45283, -64.58970,
,,,46238.75618, -66.98970,
,,,46362.05953, -61.38970,
,,,46485.36288, -61.38970,
,,,46608.66623, -61.38970,
,,,46731.96958, -44.58970,
,,,46855.27293, -35.78970,
,,,46978.57628, -34.58970,
,,,47101.87963, -34.58970,
,,,47225.18298, -38.98970,
,,,47348.48633, -51.38970,
,,,47471.78968, -53.38970,
,,,47595.09303, -53.38970,
,,,47718.39638, -56.18970,
,,,47841.69973, -66.98970,
,,,47965.00308, -66.98970,
,,,48088.30643, -64.58970,
,,,48211.60978, -66.98970,
,,,48334.91313, -66.98970,
,,,48458.21648, -64.58970,
,,,48581.51983, -61.38970,
,,,48704.82318, -49.78970,
,,,48828.12653, -36.98970,
,,,48951.42988, -34.98970,
,,,49074.73323, -34.98970,
,,,49198.03658, -38.18970,
,,,49321.33993, -48.18970,
,,,49444.64328, -53.38970,
,,,49567.94663, -52.58970,
,,,49691.24998, -56.18970,
,,,49814.55333, -61.38970,
,,,49937.85668, -64.58970,
,,,50061.16003, -64.58970,
,,,50184.46338, -64.58970,
,,,50307.76673, -66.98970,
,,,50431.07008, -66.98970,
,,,50554.37343, -61.38970,
,,,50677.67678, -56.18970,
,,,50800.98013, -38.98970,
,,,50924.28348, -35.38970,
,,,51047.58683, -35.38970,
,,,51170.89018, -36.98970,
,,,51294.19353, -46.18970,
,,,51417.49688, -56.18970,
,,,51540.80023, -53.38970,
,,,51664.10358, -53.38970,
,,,51787.40693, -60.58970,
,,,51910.71028, -66.98970,
,,,52034.01363, -66.98970,
,,,52157.31698, -64.58970,
,,,52280.62033, -66.98970,
,,,52403.92368, -66.98970,
,,,52527.22703, -60.58970,
,,,52650.53038, -61.38970,
,,,52773.83373, -40.98970,
,,,52897.13708, -36.18970,
,,,53020.44043, -35.78970,
,,,53143.74378, -36.58970,
,,,53267.04713, -42.98970,
,,,53390.35048, -53.38970,
,,,53513.65383, -51.38970,
,,,53636.95718, -53.38970,
,,,53760.26053, -58.58970,
,,,53883.56388, -60.58970,
,,,54006.86723, -66.98970,
,,,54130.17058, -64.58970,
,,,54253.47393, -66.98970,
,,,54376.77728, -64.58970,
,,,54500.08063, -64.58970,
,,,54623.38398, -66.98970,
,,,54746.68733, -44.58970,
,,,54869.99068, -36.98970,
,,,54993.29403, -36.18970,
,,,55116.59738, -36.18970,
,,,55239.90073, -41.38970,
,,,55363.20408, -53.38970,
,,,55486.50743, -52.18970,
,,,55609.81078, -53.38970,
,,,55733.11413, -56.18970,
,,,55856.41748, -64.58970,
,,,55979.72083, -61.38970,
,,,56103.02418, -66.98970,
,,,56226.32753, -66.98970,
,,,56349.63088, -61.38970,
,,,56472.93423, -64.58970,
,,,56596.23758, -61.38970,
,,,56719.54093, -48.98970,
,,,56842.84428, -37.78970,
,,,56966.14763, -36.58970,
,,,57089.45098, -36.58970,
,,,57212.75433, -40.18970,
,,,57336.05768, -50.58970,
,,,57459.36103, -52.18970,
,,,57582.66438, -53.38970,
,,,57705.96773, -53.38970,
,,,57829.27108, -60.58970,
,,,57952.57443, -66.98970,
,,,58075.87778, -66.98970,
,,,58199.18113, -64.58970,
,,,58322.48448, -66.98970,
,,,58445.78783, -64.58970,
,,,58569.09118, -60.58970,
,,,58692.39453, -53.38970,
,,,58815.69788, -39.38970,
,,,58939.00123, -36.98970,
,,,59062.30458, -36.98970,
,,,59185.60793, -38.98970,
,,,59308.91128, -48.18970,
,,,59432.21463, -53.38970,
,,,59555.51798, -52.98970,
,,,59678.82133, -54.58970,
,,,59802.12468, -58.58970,
,,,59925.42803, -66.98970,
,,,60048.73138, -66.98970,
,,,60172.03473, -66.98970,
,,,60295.33808, -64.58970,
,,,60418.64143, -64.58970,
,,,60541.94478, -64.58970,
,,,60665.24813, -61.38970,
,,,60788.55148, -41.38970,
,,,60911.85483, -36.98970,
,,,61035.15818, -36.98970,
,,,61158.46153, -38.18970,
,,,61281.76488, -45.38970,
,,,61405.06823, -52.18970,
,,,61528.37158, -51.38970,
,,,61651.67493, -52.18970,
,,,61774.97828, -58.58970,
,,,61898.28163, -64.58970,
,,,62021.58498, -66.98970,
,,,62144.88833, -66.98970,
,,,62268.19168, -66.98970,
,,,62391.49503, -64.58970,
,,,62514.79838, -66.98970,
,,,62638.10173, -60.58970,
,,,62761.40508, -44.58970,
,,,62884.70843, -38.18970,
,,,63008.01178, -37.38970,
,,,63131.31513, -37.78970,
,,,63254.61848, -44.18970,
,,,63377.92183, -52.18970,
,,,63501.22518, -52.18970,
,,,63624.52853, -52.18970,
,,,63747.83188, -58.58970,
,,,63871.13523, -66.98970,
,,,63994.43858, -66.98970,
,,,64117.74193, -64.58970,
,,,64241.04528, -66.98970,
,,,64364.34863, -64.58970,
,,,64487.65198, -64.58970,
,,,64610.95533, -61.38970,
,,,64734.25868, -46.98970,
,,,64857.56203, -38.58970,
,,,64980.86538, -37.78970,
,,,65104.16873, -38.18970,
,,,65227.47208, -41.78970,
,,,65350.77543, -51.38970,
,,,65474.07878, -52.98970,
,,,65597.38213, -50.98970,
,,,65720.68548, -54.98970,
,,,65843.98883, -61.38970,
,,,65967.29218, -66.98970,
,,,66090.59553, -64.58970,
,,,66213.89888, -66.98970,
,,,66337.20223, -66.98970,
,,,66460.50558, -64.58970,
,,,66583.80893, -61.38970,
,,,66707.11228, -52.18970,
,,,66830.41563, -40.18970,
,,,66953.71898, -38.18970,
,,,67077.02233, -38.18970,
,,,67200.32568, -40.98970,
,,,67323.62903, -49.38970,
,,,67446.93238, -52.18970,
,,,67570.23573, -50.98970,
,,,67693.53908, -53.38970,
,,,67816.84243, -60.58970,
,,,67940.14578, -66.98970,
,,,68063.44913, -66.98970,
,,,68186.75248, -66.98970,
,,,68310.05583, -64.58970,
,,,68433.35918, -64.58970,
,,,68556.66253, -66.98970,
,,,68679.96588, -57.38970,
,,,68803.26923, -41.78970,
,,,68926.57258, -38.58970,
,,,69049.87593, -38.58970,
,,,69173.17928, -39.78970,
,,,69296.48263, -47.38970,
,,,69419.78598, -52.18970,
,,,69543.08933, -50.98970,
,,,69666.39268, -52.18970,
,,,69789.69603, -60.58970,
,,,69912.99938, -66.98970,
,,,70036.30273, -64.58970,
,,,70159.60608, -64.58970,
,,,70282.90943, -66.98970,
,,,70406.21278, -64.58970,
,,,70529.51613, -66.98970,
,,,70652.81948, -64.58970,
,,,70776.12283, -44.18970,
,,,70899.42618, -38.98970,
,,,71022.72953, -38.58970,
,,,71146.03288, -39.38970,
,,,71269.33623, -45.38970,
,,,71392.63958, -52.98970,
,,,71515.94293, -50.98970,
,,,71639.24628, -52.18970,
,,,71762.54963, -56.18970,
,,,71885.85298, -64.58970,
,,,72009.15633, -66.98970,
,,,72132.45968, -66.98970,
,,,72255.76303, -66.98970,
,,,72379.06638, -66.98970,
,,,72502.36973, -64.58970,
,,,72625.67308, -64.58970,
,,,72748.97643, -46.98970,
,,,72872.27978, -39.78970,
,,,72995.58313, -38.98970,
,,,73118.88648, -38.98970,
,,,73242.18983, -44.58970,
,,,73365.49318, -50.98970,
,,,73488.79653, -50.98970,
,,,73612.09988, -51.38970,
,,,73735.40323, -56.18970,
,,,73858.70658, -66.98970,
,,,73982.00993, -66.98970,
,,,74105.31328, -61.38970,
,,,74228.61663, -66.98970,
,,,74351.91998, -66.98970,
,,,74475.22333, -66.98970,
,,,74598.52668, -61.38970,
,,,74721.83003, -50.98970,
,,,74845.13338, -40.58970,
,,,74968.43673, -38.98970,
,,,75091.74008, -39.38970,
,,,75215.04343, -42.58970,
,,,75338.34678, -50.98970,
,,,75461.65013, -51.38970,
,,,75584.95348, -51.38970,
,,,75708.25683, -52.98970,
,,,75831.56018, -64.58970,
,,,75954.86353, -66.98970,
,,,76078.16688, -61.38970,
,,,76201.47023, -66.98970,
,,,76324.77358, -64.58970,
,,,76448.07693, -64.58970,
,,,76571.38028, -66.98970,
,,,76694.68363, -54.58970,
,,,76817.98698, -42.18970,
,,,76941.29033, -39.38970,
,,,77064.59368, -39.38970,
,,,77187.89703, -41.38970,
,,,77311.20038, -48.58970,
,,,77434.50373, -50.98970,
,,,77557.80708, -49.78970,
,,,77681.11043, -51.38970,
,,,77804.41378, -60.58970,
,,,77927.71713, -66.98970,
,,,78051.02048, -64.58970,
,,,78174.32383, -66.98970,
,,,78297.62718, -66.98970,
,,,78420.93053, -66.98970,
,,,78544.23388, -66.98970,
,,,78667.53723, -66.98970,
,,,78790.84058, -43.78970,
,,,78914.14393, -39.78970,
,,,79037.44728, -39.78970,
,,,79160.75063, -40.98970,
,,,79284.05398, -47.38970,
,,,79407.35733, -51.38970,
,,,79530.66068, -48.98970,
,,,79653.96403, -50.98970,
,,,79777.26738, -57.38970,
,,,79900.57073, -66.98970,
,,,80023.87408, -66.98970,
,,,80147.17743, -61.38970,
,,,80270.48078, -66.98970,
,,,80393.78413, -64.58970,
,,,80517.08748, -64.58970,
,,,80640.39083, -66.98970,
,,,80763.69418, -46.18970,
,,,80886.99753, -40.18970,
,,,81010.30088, -40.18970,
,,,81133.60423, -40.58970,
,,,81256.90758, -45.38970,
,,,81380.21093, -51.38970,
,,,81503.51428, -49.78970,
,,,81626.81763, -49.78970,
,,,81750.12098, -54.58970,
,,,81873.42433, -61.38970,
,,,81996.72768, -66.98970,
,,,82120.03103, -61.38970,
,,,82243.33438, -66.98970,
,,,82366.63773, -64.58970,
,,,82489.94108, -66.98970,
,,,82613.24443, -61.38970,
,,,82736.54778, -50.98970,
,,,82859.85113, -40.98970,
,,,82983.15448, -40.18970,
,,,83106.45783, -40.18970,
,,,83229.76118, -44.18970,
,,,83353.06453, -49.78970,
,,,83476.36788, -50.18970,
,,,83599.67123, -49.78970,
,,,83722.97458, -53.38970,
,,,83846.27793, -60.58970,
,,,83969.58128, -66.98970,
,,,84092.88463, -66.98970,
,,,84216.18798, -66.98970,
,,,84339.49133, -64.58970,
,,,84462.79468, -61.38970,
,,,84586.09803, -61.38970,
,,,84709.40138, -52.98970,
,,,84832.70473, -42.18970,
,,,84956.00808, -40.18970,
,,,85079.31143, -40.58970,
,,,85202.61478, -42.98970,
,,,85325.91813, -49.78970,
,,,85449.22148, -50.18970,
,,,85572.52483, -48.98970,
,,,85695.82818, -52.98970,
,,,85819.13153, -60.58970,
,,,85942.43488, -64.58970,
,,,86065.73823, -60.58970,
,,,86189.04158, -66.98970,
,,,86312.34493, -66.98970,
,,,86435.64828, -64.58970,
,,,86558.95163, -66.98970,
,,,86682.25498, -57.78970,
,,,86805.55833, -43.78970,
,,,86928.86168, -40.98970,
,,,87052.16503, -40.98970,
,,,87175.46838, -42.58970,
,,,87298.77173, -47.78970,
,,,87422.07508, -48.98970,
,,,87545.37843, -48.98970,
,,,87668.68178, -51.38970,
,,,87791.98513, -60.58970,
,,,87915.28848, -66.98970,
,,,88038.59183, -64.58970,
,,,88161.89518, -66.98970,
,,,88285.19853, -66.98970,
,,,88408.50188, -60.58970,
,,,88531.80523, -64.58970,
,,,88655.10858, -64.58970,
,,,88778.41193, -45.38970,
,,,88901.71528, -40.98970,
,,,89025.01863, -40.98970,
,,,89148.32198, -41.78970,
,,,89271.62533, -46.58970,
,,,89394.92868, -49.38970,
,,,89518.23203, -48.98970,
