lab_3/Hardcopies/ALL0006/F0006FFT.CSV

Record Length,1.024000e+03,,          0.00000, -24.18970,
Sample Interval,1.220703e+03,,       1220.70312,  -1.38970,
Trigger Point,-0.000000000000e+00,,       2441.40625,  -0.18970,
,,,       3662.10938,  -2.18970,
,,,       4882.81250, -12.98970,
,,,       6103.51562, -31.78970,
Source,FFT,,       7324.21875, -39.38970,
Vertical Units,dB,,       8544.92188, -47.38970,
Vertical Scale,1.000000e+01,,       9765.62500, -51.78970,
Vertical Offset,0.000000e+00,,      10986.32812, -54.98970,
Horizontal Units,Hz,,      12207.03125, -56.18970,
Horizontal Scale,1.250000e+05,,      13427.73438, -64.58970,
Pt Fmt,Y,,      14648.43750, -60.58970,
Yzero,-2.698970e+01,,      15869.14062, -66.98970,
Probe Atten,1.000000e+00,,      17089.84375, -64.58970,
Model Number,TBS1072B-EDU,,      18310.54688, -66.98970,
Serial Number,C012539,,      19531.25000, -66.98970,
Firmware Version,FV:v4.06,,      20751.95312, -66.98970,
,,,21972.65624, -66.98970,
,,,23193.35936, -66.98970,
,,,24414.06248, -66.98970,
,,,25634.76560, -66.98970,
,,,26855.46872, -66.98970,
,,,28076.17184, -66.98970,
,,,29296.87496, -64.58970,
,,,30517.57808, -66.98970,
,,,31738.28120, -66.98970,
,,,32958.98432, -66.98970,
,,,34179.68744, -66.98970,
,,,35400.39056, -66.98970,
,,,36621.09368, -66.98970,
,,,37841.79680, -66.98970,
,,,39062.49992, -64.58970,
,,,40283.20304, -66.98970,
,,,41503.90616, -66.98970,
,,,42724.60928, -66.98970,
,,,43945.31240, -66.98970,
,,,45166.01552, -66.98970,
,,,46386.71864, -66.98970,
,,,47607.42176, -66.98970,
,,,48828.12488, -66.98970,
,,,50048.82800, -66.98970,
,,,51269.53112, -64.58970,
,,,52490.23424, -66.98970,
,,,53710.93736, -66.98970,
,,,54931.64048, -66.98970,
,,,56152.34360, -66.98970,
,,,57373.04672, -66.98970,
,,,58593.74984, -66.98970,
,,,59814.45296, -66.98970,
,,,61035.15608, -66.98970,
,,,62255.85920, -66.98970,
,,,63476.56232, -66.98970,
,,,64697.26544, -66.98970,
,,,65917.96856, -66.98970,
,,,67138.67168, -66.98970,
,,,68359.37480, -66.98970,
,,,69580.07792, -66.98970,
,,,70800.78104, -66.98970,
,,,72021.48416, -66.98970,
,,,73242.18728, -66.98970,
,,,74462.89040, -66.98970,
,,,75683.59352, -66.98970,
,,,76904.29664, -66.98970,
,,,78124.99976, -66.98970,
,,,79345.70288, -66.98970,
,,,80566.40600, -64.58970,
,,,81787.10912, -66.98970,
,,,83007.81224, -66.98970,
,,,84228.51536, -66.98970,
,,,85449.21848, -64.58970,
,,,86669.92160, -64.58970,
,,,87890.62472, -66.98970,
,,,89111.32784, -64.58970,
,,,90332.03096, -66.98970,
,,,91552.73408, -66.98970,
,,,92773.43720, -66.98970,
,,,93994.14032, -66.98970,
,,,95214.84344, -66.98970,
,,,96435.54656, -66.98970,
,,,97656.24968, -64.58970,
,,,98876.95280, -64.58970,
,,,100097.65592, -66.98970,
,,,101318.35904, -66.98970,
,,,102539.06216, -64.58970,
,,,103759.76528, -66.98970,
,,,104980.46840, -66.98970,
,,,106201.17152, -66.98970,
,,,107421.87464, -66.98970,
,,,108642.57776, -66.98970,
,,,109863.28088, -66.98970,
,,,111083.98400, -66.98970,
,,,112304.68712, -66.98970,
,,,113525.39024, -66.98970,
,,,114746.09336, -66.98970,
,,,115966.79648, -66.98970,
,,,117187.49960, -66.98970,
,,,118408.20272, -66.98970,
,,,119628.90584, -66.98970,
,,,120849.60896, -60.58970,
,,,122070.31208, -60.58970,
,,,123291.01520, -64.58970,
,,,124511.71832, -66.98970,
,,,125732.42144, -66.98970,
,,,126953.12456, -66.98970,
,,,128173.82768, -66.98970,
,,,129394.53080, -66.98970,
,,,130615.23392, -66.98970,
,,,131835.93704, -66.98970,
,,,133056.64016, -66.98970,
,,,134277.34328, -66.98970,
,,,135498.04640, -66.98970,
,,,136718.74952, -66.98970,
,,,137939.45264, -66.98970,
,,,139160.15576, -64.58970,
,,,140380.85888, -66.98970,
,,,141601.56200, -66.98970,
,,,142822.26512, -66.98970,
,,,144042.96824, -66.98970,
,,,145263.67136, -66.98970,
,,,146484.37448, -66.98970,
,,,147705.07760, -66.98970,
,,,148925.78072, -64.58970,
,,,150146.48384, -66.98970,
,,,151367.18696, -66.98970,
,,,152587.89008, -66.98970,
,,,153808.59320, -66.98970,
,,,155029.29632, -66.98970,
,,,156249.99944, -66.98970,
,,,157470.70256, -66.98970,
,,,158691.40568, -66.98970,
,,,159912.10880, -66.98970,
,,,161132.81192, -66.98970,
,,,162353.51504, -66.98970,
,,,163574.21816, -66.98970,
,,,164794.92128, -66.98970,
,,,166015.62440, -61.38970,
,,,167236.32752, -64.58970,
,,,168457.03064, -66.98970,
,,,169677.73376, -66.98970,
,,,170898.43688, -66.98970,
,,,172119.14000, -66.98970,
,,,173339.84312, -66.98970,
,,,174560.54624, -66.98970,
,,,175781.24936, -66.98970,
,,,177001.95248, -66.98970,
,,,178222.65560, -66.98970,
,,,179443.35872, -66.98970,
,,,180664.06184, -64.58970,
,,,181884.76496, -64.58970,
,,,183105.46808, -66.98970,
,,,184326.17120, -66.98970,
,,,185546.87432, -66.98970,
,,,186767.57744, -66.98970,
,,,187988.28056, -66.98970,
,,,189208.98368, -66.98970,
,,,190429.68680, -66.98970,
,,,191650.38992, -60.58970,
,,,192871.09304, -66.98970,
,,,194091.79616, -66.98970,
,,,195312.49928, -66.98970,
,,,196533.20240, -66.98970,
,,,197753.90552, -66.98970,
,,,198974.60864, -66.98970,
,,,200195.31176, -66.98970,
,,,201416.01488, -66.98970,
,,,202636.71800, -66.98970,
,,,203857.42112, -66.98970,
,,,205078.12424, -66.98970,
,,,206298.82736, -66.98970,
,,,207519.53048, -66.98970,
,,,208740.23360, -66.98970,
,,,209960.93672, -66.98970,
,,,211181.63984, -66.98970,
,,,212402.34296, -66.98970,
,,,213623.04608, -66.98970,
,,,214843.74920, -66.98970,
,,,216064.45232, -66.98970,
,,,217285.15544, -66.98970,
,,,218505.85856, -66.98970,
,,,219726.56168, -64.58970,
,,,220947.26480, -66.98970,
,,,222167.96792, -66.98970,
,,,223388.67104, -66.98970,
,,,224609.37416, -66.98970,
,,,225830.07728, -66.98970,
,,,227050.78040, -61.38970,
,,,228271.48352, -66.98970,
,,,229492.18664, -66.98970,
,,,230712.88976, -66.98970,
,,,231933.59288, -66.98970,
,,,233154.29600, -66.98970,
,,,234374.99912, -66.98970,
,,,235595.70224, -66.98970,
,,,236816.40536, -66.98970,
,,,238037.10848, -64.58970,
,,,239257.81160, -66.98970,
,,,240478.51472, -66.98970,
,,,241699.21784, -66.98970,
,,,242919.92096, -61.38970,
,,,244140.62408, -66.98970,
,,,245361.32720, -66.98970,
,,,246582.03032, -66.98970,
,,,247802.73344, -66.98970,
,,,249023.43656, -64.58970,
,,,250244.13968, -64.58970,
,,,251464.84280, -64.58970,
,,,252685.54592, -66.98970,
,,,253906.24904, -66.98970,
,,,255126.95216, -66.98970,
,,,256347.65528, -66.98970,
,,,257568.35840, -64.58970,
,,,258789.06152, -66.98970,
,,,260009.76464, -66.98970,
,,,261230.46776, -66.98970,
,,,262451.17088, -64.58970,
,,,263671.87400, -66.98970,
,,,264892.57712, -66.98970,
,,,266113.28024, -64.58970,
,,,267333.98336, -66.98970,
,,,268554.68648, -66.98970,
,,,269775.38960, -64.58970,
,,,270996.09272, -66.98970,
,,,272216.79584, -66.98970,
,,,273437.49896, -60.58970,
,,,274658.20208, -66.98970,
,,,275878.90520, -66.98970,
,,,277099.60832, -64.58970,
,,,278320.31144, -64.58970,
,,,279541.01456, -66.98970,
,,,280761.71768, -64.58970,
,,,281982.42080, -66.98970,
,,,283203.12392, -64.58970,
,,,284423.82704, -66.98970,
,,,285644.53016, -66.98970,
,,,286865.23328, -66.98970,
,,,288085.93640, -66.98970,
,,,289306.63952, -66.98970,
,,,290527.34264, -66.98970,
,,,291748.04576, -64.58970,
,,,292968.74888, -66.98970,
,,,294189.45200, -66.98970,
,,,295410.15512, -66.98970,
,,,296630.85824, -66.98970,
,,,297851.56136, -66.98970,
,,,299072.26448, -66.98970,
,,,300292.96760, -66.98970,
,,,301513.67072, -66.98970,
,,,302734.37384, -60.58970,
,,,303955.07696, -66.98970,
,,,305175.78008, -66.98970,
,,,306396.48320, -66.98970,
,,,307617.18632, -64.58970,
,,,308837.88944, -66.98970,
,,,310058.59256, -66.98970,
,,,311279.29568, -66.98970,
,,,312499.99880, -66.98970,
,,,313720.70192, -66.98970,
,,,314941.40504, -66.98970,
,,,316162.10816, -66.98970,
,,,317382.81128, -66.98970,
,,,318603.51440, -66.98970,
,,,319824.21752, -66.98970,
,,,321044.92064, -66.98970,
,,,322265.62376, -64.58970,
,,,323486.32688, -66.98970,
,,,324707.03000, -66.98970,
,,,325927.73312, -66.98970,
,,,327148.43624, -66.98970,
,,,328369.13936, -66.98970,
,,,329589.84248, -66.98970,
,,,330810.54560, -66.98970,
,,,332031.24872, -66.98970,
,,,333251.95184, -64.58970,
,,,334472.65496, -64.58970,
,,,335693.35808, -66.98970,
,,,336914.06120, -66.98970,
,,,338134.76432, -66.98970,
,,,339355.46744, -66.98970,
,,,340576.17056, -64.58970,
,,,341796.87368, -66.98970,
,,,343017.57680, -66.98970,
,,,344238.27992, -66.98970,
,,,345458.98304, -66.98970,
,,,346679.68616, -66.98970,
,,,347900.38928, -66.98970,
,,,349121.09240, -66.98970,
,,,350341.79552, -66.98970,
,,,351562.49864, -66.98970,
,,,352783.20176, -66.98970,
,,,354003.90488, -66.98970,
,,,355224.60800, -66.98970,
,,,356445.31112, -66.98970,
,,,357666.01424, -66.98970,
,,,358886.71736, -66.98970,
,,,360107.42048, -66.98970,
,,,361328.12360, -66.98970,
,,,362548.82672, -64.58970,
,,,363769.52984, -66.98970,
,,,364990.23296, -66.98970,
,,,366210.93608, -66.98970,
,,,367431.63920, -66.98970,
,,,368652.34232, -66.98970,
,,,369873.04544, -66.98970,
,,,371093.74856, -66.98970,
,,,372314.45168, -66.98970,
,,,373535.15480, -64.58970,
,,,374755.85792, -64.58970,
,,,375976.56104, -66.98970,
,,,377197.26416, -66.98970,
,,,378417.96728, -64.58970,
,,,379638.67040, -66.98970,
,,,380859.37352, -66.98970,
,,,382080.07664, -66.98970,
,,,383300.77976, -66.98970,
,,,384521.48288, -66.98970,
,,,385742.18600, -66.98970,
,,,386962.88912, -66.98970,
,,,388183.59224, -66.98970,
,,,389404.29536, -66.98970,
,,,390624.99848, -66.98970,
,,,391845.70160, -66.98970,
,,,393066.40472, -66.98970,
,,,394287.10784, -66.98970,
,,,395507.81096, -66.98970,
,,,396728.51408, -66.98970,
,,,397949.21720, -66.98970,
,,,399169.92032, -66.98970,
,,,400390.62344, -66.98970,
,,,401611.32656, -64.58970,
,,,402832.02968, -64.58970,
,,,404052.73280, -66.98970,
,,,405273.43592, -66.98970,
,,,406494.13904, -66.98970,
,,,407714.84216, -64.58970,
,,,408935.54528, -66.98970,
,,,410156.24840, -64.58970,
,,,411376.95152, -66.98970,
,,,412597.65464, -64.58970,
,,,413818.35776, -66.98970,
,,,415039.06088, -66.98970,
,,,416259.76400, -66.98970,
,,,417480.46712, -66.98970,
,,,418701.17024, -66.98970,
,,,419921.87336, -66.98970,
,,,421142.57648, -66.98970,
,,,422363.27960, -66.98970,
,,,423583.98272, -66.98970,
,,,424804.68584, -66.98970,
,,,426025.38896, -64.58970,
,,,427246.09208, -66.98970,
,,,428466.79520, -66.98970,
,,,429687.49832, -66.98970,
,,,430908.20144, -66.98970,
,,,432128.90456, -66.98970,
,,,433349.60768, -66.98970,
,,,434570.31080, -66.98970,
,,,435791.01392, -66.98970,
,,,437011.71704, -66.98970,
,,,438232.42016, -66.98970,
,,,439453.12328, -66.98970,
,,,440673.82640, -66.98970,
,,,441894.52952, -64.58970,
,,,443115.23264, -66.98970,
,,,444335.93576, -66.98970,
,,,445556.63888, -66.98970,
,,,446777.34200, -66.98970,
,,,447998.04512, -66.98970,
,,,449218.74824, -66.98970,
,,,450439.45136, -64.58970,
,,,451660.15448, -66.98970,
,,,452880.85760, -66.98970,
,,,454101.56072, -61.38970,
,,,455322.26384, -66.98970,
,,,456542.96696, -66.98970,
,,,457763.67008, -66.98970,
,,,458984.37320, -66.98970,
,,,460205.07632, -66.98970,
,,,461425.77944, -66.98970,
,,,462646.48256, -66.98970,
,,,463867.18568, -66.98970,
,,,465087.88880, -66.98970,
,,,466308.59192, -66.98970,
,,,467529.29504, -66.98970,
,,,468749.99816, -66.98970,
,,,469970.70128, -66.98970,
,,,471191.40440, -66.98970,
,,,472412.10752, -66.98970,
,,,473632.81064, -66.98970,
,,,474853.51376, -66.98970,
,,,476074.21688, -66.98970,
,,,477294.92000, -66.98970,
,,,478515.62312, -64.58970,
,,,479736.32624, -66.98970,
,,,480957.02936, -66.98970,
,,,482177.73248, -66.98970,
,,,483398.43560, -66.98970,
,,,484619.13872, -66.98970,
,,,485839.84184, -66.98970,
,,,487060.54496, -66.98970,
,,,488281.24808, -66.98970,
,,,489501.95120, -66.98970,
,,,490722.65432, -64.58970,
,,,491943.35744, -64.58970,
,,,493164.06056, -66.98970,
,,,494384.76368, -66.98970,
,,,495605.46680, -64.58970,
,,,496826.16992, -66.98970,
,,,498046.87304, -64.58970,
,,,499267.57616, -66.98970,
,,,500488.27928, -64.58970,
,,,501708.98240, -66.98970,
,,,502929.68552, -64.58970,
,,,504150.38864, -66.98970,
,,,505371.09176, -66.98970,
,,,506591.79488, -66.98970,
,,,507812.49800, -66.98970,
,,,509033.20112, -66.98970,
,,,510253.90424, -66.98970,
,,,511474.60736, -66.98970,
,,,512695.31048, -66.98970,
,,,513916.01360, -66.98970,
,,,515136.71672, -66.98970,
,,,516357.41984, -66.98970,
,,,517578.12296, -66.98970,
,,,518798.82608, -66.98970,
,,,520019.52920, -66.98970,
,,,521240.23232, -66.98970,
,,,522460.93544, -66.98970,
,,,523681.63856, -66.98970,
,,,524902.34168, -66.98970,
,,,526123.04480, -64.58970,
,,,527343.74792, -66.98970,
,,,528564.45104, -66.98970,
,,,529785.15416, -66.98970,
,,,531005.85728, -64.58970,
,,,532226.56040, -64.58970,
,,,533447.26352, -66.98970,
,,,534667.96664, -66.98970,
,,,535888.66976, -66.98970,
,,,537109.37288, -64.58970,
,,,538330.07600, -64.58970,
,,,539550.77912, -66.98970,
,,,540771.48224, -66.98970,
,,,541992.18536, -66.98970,
,,,543212.88848, -66.98970,
,,,544433.59160, -64.58970,
,,,545654.29472, -66.98970,
,,,546874.99784, -66.98970,
,,,548095.70096, -66.98970,
,,,549316.40408, -66.98970,
,,,550537.10720, -66.98970,
,,,551757.81032, -66.98970,
,,,552978.51344, -66.98970,
,,,554199.21656, -66.98970,
,,,555419.91968, -66.98970,
,,,556640.62280, -66.98970,
,,,557861.32592, -66.98970,
,,,559082.02904, -64.58970,
,,,560302.73216, -64.58970,
,,,561523.43528, -66.98970,
,,,562744.13840, -66.98970,
,,,563964.84152, -64.58970,
,,,565185.54464, -66.98970,
,,,566406.24776, -66.98970,
,,,567626.95088, -66.98970,
,,,568847.65400, -66.98970,
,,,570068.35712, -66.98970,
,,,571289.06024, -66.98970,
,,,572509.76336, -66.98970,
,,,573730.46648, -66.98970,
,,,574951.16960, -66.98970,
,,,576171.87272, -66.98970,
,,,577392.57584, -66.98970,
,,,578613.27896, -66.98970,
,,,579833.98208, -66.98970,
,,,581054.68520, -64.58970,
,,,582275.38832, -66.98970,
,,,583496.09144, -64.58970,
,,,584716.79456, -64.58970,
,,,585937.49768, -64.58970,
,,,587158.20080, -66.98970,
,,,588378.90392, -66.98970,
,,,589599.60704, -66.98970,
,,,590820.31016, -66.98970,
,,,592041.01328, -66.98970,
,,,593261.71640, -66.98970,
,,,594482.41952, -66.98970,
,,,595703.12264, -66.98970,
,,,596923.82576, -66.98970,
,,,598144.52888, -66.98970,
,,,599365.23200, -64.58970,
,,,600585.93512, -64.58970,
,,,601806.63824, -66.98970,
,,,603027.34136, -66.98970,
,,,604248.04448, -66.98970,
,,,605468.74760, -66.98970,
,,,606689.45072, -66.98970,
,,,607910.15384, -64.58970,
,,,609130.85696, -66.98970,
,,,610351.56008, -66.98970,
,,,611572.26320, -66.98970,
,,,612792.96632, -66.98970,
,,,614013.66944, -64.58970,
,,,615234.37256, -61.38970,
,,,616455.07568, -64.58970,
,,,617675.77880, -66.98970,
,,,618896.48192, -66.98970,
,,,620117.18504, -66.98970,
,,,621337.88816, -66.98970,
,,,622558.59128, -66.98970,
,,,623779.29440, -66.98970,
,,,624999.99752, -66.98970,
,,,626220.70064, -66.98970,
,,,627441.40376, -66.98970,
,,,628662.10688, -66.98970,
,,,629882.81000, -66.98970,
,,,631103.51312, -66.98970,
,,,632324.21624, -66.98970,
,,,633544.91936, -66.98970,
,,,634765.62248, -66.98970,
,,,635986.32560, -66.98970,
,,,637207.02872, -66.98970,
,,,638427.73184, -66.98970,
,,,639648.43496, -64.58970,
,,,640869.13808, -66.98970,
,,,642089.84120, -66.98970,
,,,643310.54432, -61.38970,
,,,644531.24744, -66.98970,
,,,645751.95056, -66.98970,
,,,646972.65368, -66.98970,
,,,648193.35680, -66.98970,
,,,649414.05992, -66.98970,
,,,650634.76304, -64.58970,
,,,651855.46616, -66.98970,
,,,653076.16928, -66.98970,
,,,654296.87240, -66.98970,
,,,655517.57552, -66.98970,
,,,656738.27864, -66.98970,
,,,657958.98176, -66.98970,
,,,659179.68488, -64.58970,
,,,660400.38800, -61.38970,
,,,661621.09112, -66.98970,
,,,662841.79424, -66.98970,
,,,664062.49736, -64.58970,
,,,665283.20048, -66.98970,
,,,666503.90360, -66.98970,
,,,667724.60672, -66.98970,
,,,668945.30984, -66.98970,
,,,670166.01296, -66.98970,
,,,671386.71608, -66.98970,
,,,672607.41920, -66.98970,
,,,673828.12232, -66.98970,
,,,675048.82544, -66.98970,
,,,676269.52856, -66.98970,
,,,677490.23168, -66.98970,
,,,678710.93480, -61.38970,
,,,679931.63792, -61.38970,
,,,681152.34104, -66.98970,
,,,682373.04416, -66.98970,
,,,683593.74728, -66.98970,
,,,684814.45040, -66.98970,
,,,686035.15352, -66.98970,
,,,687255.85664, -64.58970,
,,,688476.55976, -61.38970,
,,,689697.26288, -66.98970,
,,,690917.96600, -66.98970,
,,,692138.66912, -66.98970,
,,,693359.37224, -66.98970,
,,,694580.07536, -66.98970,
,,,695800.77848, -66.98970,
,,,697021.48160, -64.58970,
,,,698242.18472, -66.98970,
,,,699462.88784, -64.58970,
,,,700683.59096, -64.58970,
,,,701904.29408, -66.98970,
,,,703124.99720, -66.98970,
,,,704345.70032, -66.98970,
,,,705566.40344, -66.98970,
,,,706787.10656, -66.98970,
,,,708007.80968, -66.98970,
,,,709228.51280, -61.38970,
,,,710449.21592, -64.58970,
,,,711669.91904, -64.58970,
,,,712890.62216, -61.38970,
,,,714111.32528, -64.58970,
,,,715332.02840, -66.98970,
,,,716552.73152, -66.98970,
,,,717773.43464, -66.98970,
,,,718994.13776, -66.98970,
,,,720214.84088, -60.58970,
,,,721435.54400, -61.38970,
,,,722656.24712, -61.38970,
,,,723876.95024, -66.98970,
,,,725097.65336, -66.98970,
,,,726318.35648, -61.38970,
,,,727539.05960, -66.98970,
,,,728759.76272, -64.58970,
,,,729980.46584, -66.98970,
,,,731201.16896, -64.58970,
,,,732421.87208, -66.98970,
,,,733642.57520, -66.98970,
,,,734863.27832, -66.98970,
,,,736083.98144, -66.98970,
,,,737304.68456, -66.98970,
,,,738525.38768, -64.58970,
,,,739746.09080, -66.98970,
,,,740966.79392, -61.38970,
,,,742187.49704, -66.98970,
,,,743408.20016, -66.98970,
,,,744628.90328, -66.98970,
,,,745849.60640, -64.58970,
,,,747070.30952, -61.38970,
,,,748291.01264, -66.98970,
,,,749511.71576, -66.98970,
,,,750732.41888, -64.58970,
,,,751953.12200, -66.98970,
,,,753173.82512, -61.38970,
,,,754394.52824, -64.58970,
,,,755615.23136, -64.58970,
,,,756835.93448, -64.58970,
,,,758056.63760, -66.98970,
,,,759277.34072, -64.58970,
,,,760498.04384, -66.98970,
,,,761718.74696, -66.98970,
,,,762939.45008, -66.98970,
,,,764160.15320, -60.58970,
,,,765380.85632, -60.58970,
,,,766601.55944, -64.58970,
,,,767822.26256, -66.98970,
,,,769042.96568, -64.58970,
,,,770263.66880, -60.58970,
,,,771484.37192, -60.58970,
,,,772705.07504, -66.98970,
,,,773925.77816, -66.98970,
,,,775146.48128, -64.58970,
,,,776367.18440, -66.98970,
,,,777587.88752, -66.98970,
,,,778808.59064, -66.98970,
,,,780029.29376, -66.98970,
,,,781249.99688, -66.98970,
,,,782470.70000, -66.98970,
,,,783691.40312, -66.98970,
,,,784912.10624, -64.58970,
,,,786132.80936, -66.98970,
,,,787353.51248, -66.98970,
,,,788574.21560, -66.98970,
,,,789794.91872, -66.98970,
,,,791015.62184, -66.98970,
,,,792236.32496, -66.98970,
,,,793457.02808, -66.98970,
,,,794677.73120, -66.98970,
,,,795898.43432, -66.98970,
,,,797119.13744, -60.58970,
,,,798339.84056, -66.98970,
,,,799560.54368, -61.38970,
,,,800781.24680, -66.98970,
,,,802001.94992, -66.98970,
,,,803222.65304, -66.98970,
,,,804443.35616, -66.98970,
,,,805664.05928, -66.98970,
,,,806884.76240, -64.58970,
,,,808105.46552, -66.98970,
,,,809326.16864, -64.58970,
,,,810546.87176, -66.98970,
,,,811767.57488, -66.98970,
,,,812988.27800, -66.98970,
,,,814208.98112, -66.98970,
,,,815429.68424, -66.98970,
,,,816650.38736, -64.58970,
,,,817871.09048, -66.98970,
,,,819091.79360, -61.38970,
,,,820312.49672, -60.58970,
,,,821533.19984, -61.38970,
,,,822753.90296, -57.38970,
,,,823974.60608, -61.38970,
,,,825195.30920, -64.58970,
,,,826416.01232, -66.98970,
,,,827636.71544, -66.98970,
,,,828857.41856, -66.98970,
,,,830078.12168, -66.98970,
,,,831298.82480, -64.58970,
,,,832519.52792, -66.98970,
,,,833740.23104, -66.98970,
,,,834960.93416, -66.98970,
,,,836181.63728, -66.98970,
,,,837402.34040, -64.58970,
,,,838623.04352, -64.58970,
,,,839843.74664, -61.38970,
,,,841064.44976, -66.98970,
,,,842285.15288, -66.98970,
,,,843505.85600, -66.98970,
,,,844726.55912, -61.38970,
,,,845947.26224, -64.58970,
,,,847167.96536, -66.98970,
,,,848388.66848, -66.98970,
,,,849609.37160, -64.58970,
,,,850830.07472, -64.58970,
,,,852050.77784, -60.58970,
,,,853271.48096, -66.98970,
,,,854492.18408, -61.38970,
