lab_3/Hardcopies/ALL0003/F0003FFT.CSV

Record Length,1.024000e+03,,          0.00000, -36.58970,
Sample Interval,1.233033e+00,,          1.23303, -34.98970,
Trigger Point,-0.000000000000e+00,,          2.46607, -41.38970,
,,,          3.69910, -66.98970,
,,,          4.93213, -66.98970,
,,,          6.16517, -66.98970,
Source,FFT,,          7.39820, -66.98970,
Vertical Units,dB,,          8.63123, -66.98970,
Vertical Scale,1.000000e+01,,          9.86427, -66.98970,
Vertical Offset,0.000000e+00,,         11.09730, -66.98970,
Horizontal Units,Hz,,         12.33033, -66.98970,
Horizontal Scale,1.262626e+02,,         13.56337, -66.98970,
Pt Fmt,Y,,         14.79640, -66.98970,
Yzero,-2.698970e+01,,         16.02943, -66.98970,
Probe Atten,1.000000e+00,,         17.26247, -66.98970,
Model Number,TBS1072B-EDU,,         18.49550, -66.98970,
Serial Number,C012539,,         19.72854, -66.98970,
Firmware Version,FV:v4.06,,         20.96157, -66.98970,
,,,22.19460, -64.58970,
,,,23.42763, -64.58970,
,,,24.66066, -64.58970,
,,,25.89369, -64.58970,
,,,27.12672, -66.98970,
,,,28.35975, -66.98970,
,,,29.59278, -66.98970,
,,,30.82581, -64.58970,
,,,32.05884, -66.98970,
,,,33.29187, -66.98970,
,,,34.52490, -66.98970,
,,,35.75793, -66.98970,
,,,36.99096, -66.98970,
,,,38.22399, -66.98970,
,,,39.45702, -66.98970,
,,,40.69005, -66.98970,
,,,41.92308, -66.98970,
,,,43.15611, -66.98970,
,,,44.38914, -66.98970,
,,,45.62217, -66.98970,
,,,46.85520, -66.98970,
,,,48.08823, -66.98970,
,,,49.32126, -61.38970,
,,,50.55429, -61.38970,
,,,51.78732, -64.58970,
,,,53.02035, -66.98970,
,,,54.25338, -66.98970,
,,,55.48641, -66.98970,
,,,56.71944, -66.98970,
,,,57.95247, -66.98970,
,,,59.18550, -66.98970,
,,,60.41853, -66.98970,
,,,61.65156, -64.58970,
,,,62.88459, -66.98970,
,,,64.11762, -66.98970,
,,,65.35065, -66.98970,
,,,66.58368, -66.98970,
,,,67.81671, -64.58970,
,,,69.04974, -66.98970,
,,,70.28277, -66.98970,
,,,71.51580, -64.58970,
,,,72.74883, -66.98970,
,,,73.98186, -66.98970,
,,,75.21489, -66.98970,
,,,76.44792, -66.98970,
,,,77.68095, -66.98970,
,,,78.91398, -66.98970,
,,,80.14701, -66.98970,
,,,81.38004, -66.98970,
,,,82.61307, -66.98970,
,,,83.84610, -61.38970,
,,,85.07913, -61.38970,
,,,86.31216, -66.98970,
,,,87.54519, -64.58970,
,,,88.77822, -66.98970,
,,,90.01125, -66.98970,
,,,91.24428, -64.58970,
,,,92.47731, -66.98970,
,,,93.71034, -64.58970,
,,,94.94337, -66.98970,
,,,96.17640, -66.98970,
,,,97.40943, -66.98970,
,,,98.64246, -64.58970,
,,,99.87549, -66.98970,
,,,101.10852, -66.98970,
,,,102.34155, -64.58970,
,,,103.57458, -66.98970,
,,,104.80761, -66.98970,
,,,106.04064, -66.98970,
,,,107.27367, -66.98970,
,,,108.50670, -66.98970,
,,,109.73973, -66.98970,
,,,110.97276, -66.98970,
,,,112.20579, -64.58970,
,,,113.43882, -66.98970,
,,,114.67185, -66.98970,
,,,115.90488, -66.98970,
,,,117.13791, -66.98970,
,,,118.37094, -66.98970,
,,,119.60397, -66.98970,
,,,120.83700, -66.98970,
,,,122.07003, -66.98970,
,,,123.30306, -66.98970,
,,,124.53609, -66.98970,
,,,125.76912, -66.98970,
,,,127.00215, -66.98970,
,,,128.23518, -66.98970,
,,,129.46821, -64.58970,
,,,130.70124, -66.98970,
,,,131.93427, -66.98970,
,,,133.16730, -66.98970,
,,,134.40033, -66.98970,
,,,135.63336, -66.98970,
,,,136.86639, -66.98970,
,,,138.09942, -66.98970,
,,,139.33245, -66.98970,
,,,140.56548, -66.98970,
,,,141.79851, -66.98970,
,,,143.03154, -64.58970,
,,,144.26457, -64.58970,
,,,145.49760, -64.58970,
,,,146.73063, -60.58970,
,,,147.96366, -66.98970,
,,,149.19669, -66.98970,
,,,150.42972, -66.98970,
,,,151.66275, -66.98970,
,,,152.89578, -66.98970,
,,,154.12881, -66.98970,
,,,155.36184, -66.98970,
,,,156.59487, -66.98970,
,,,157.82790, -66.98970,
,,,159.06093, -66.98970,
,,,160.29396, -66.98970,
,,,161.52699, -66.98970,
,,,162.76002, -66.98970,
,,,163.99305, -66.98970,
,,,165.22608, -66.98970,
,,,166.45911, -66.98970,
,,,167.69214, -66.98970,
,,,168.92517, -66.98970,
,,,170.15820, -66.98970,
,,,171.39123, -64.58970,
,,,172.62426, -60.58970,
,,,173.85729, -66.98970,
,,,175.09032, -66.98970,
,,,176.32335, -66.98970,
,,,177.55638, -66.98970,
,,,178.78941, -66.98970,
,,,180.02244, -66.98970,
,,,181.25547, -64.58970,
,,,182.48850, -64.58970,
,,,183.72153, -66.98970,
,,,184.95456, -66.98970,
,,,186.18759, -66.98970,
,,,187.42062, -66.98970,
,,,188.65365, -66.98970,
,,,189.88668, -66.98970,
,,,191.11971, -64.58970,
,,,192.35274, -66.98970,
,,,193.58577, -66.98970,
,,,194.81880, -66.98970,
,,,196.05183, -66.98970,
,,,197.28486, -66.98970,
,,,198.51789, -66.98970,
,,,199.75092, -66.98970,
,,,200.98395, -66.98970,
,,,202.21698, -66.98970,
,,,203.45001, -66.98970,
,,,204.68304, -66.98970,
,,,205.91607, -66.98970,
,,,207.14910, -66.98970,
,,,208.38213, -66.98970,
,,,209.61516, -64.58970,
,,,210.84819, -64.58970,
,,,212.08122, -64.58970,
,,,213.31425, -66.98970,
,,,214.54728, -66.98970,
,,,215.78031, -66.98970,
,,,217.01334, -66.98970,
,,,218.24637, -66.98970,
,,,219.47940, -66.98970,
,,,220.71243, -66.98970,
,,,221.94546, -66.98970,
,,,223.17849, -64.58970,
,,,224.41152, -66.98970,
,,,225.64455, -64.58970,
,,,226.87758, -66.98970,
,,,228.11061, -66.98970,
,,,229.34364, -66.98970,
,,,230.57667, -66.98970,
,,,231.80970, -66.98970,
,,,233.04273, -66.98970,
,,,234.27576, -66.98970,
,,,235.50879, -66.98970,
,,,236.74182, -66.98970,
,,,237.97485, -66.98970,
,,,239.20788, -66.98970,
,,,240.44091, -66.98970,
,,,241.67394, -66.98970,
,,,242.90697, -66.98970,
,,,244.14000, -64.58970,
,,,245.37303, -66.98970,
,,,246.60606, -66.98970,
,,,247.83909, -66.98970,
,,,249.07212, -66.98970,
,,,250.30515, -66.98970,
,,,251.53818, -66.98970,
,,,252.77121, -66.98970,
,,,254.00424, -66.98970,
,,,255.23727, -64.58970,
,,,256.47030, -66.98970,
,,,257.70333, -61.38970,
,,,258.93636, -66.98970,
,,,260.16939, -66.98970,
,,,261.40242, -66.98970,
,,,262.63545, -66.98970,
,,,263.86848, -66.98970,
,,,265.10151, -66.98970,
,,,266.33454, -66.98970,
,,,267.56757, -66.98970,
,,,268.80060, -66.98970,
,,,270.03363, -66.98970,
,,,271.26666, -66.98970,
,,,272.49969, -66.98970,
,,,273.73272, -66.98970,
,,,274.96575, -66.98970,
,,,276.19878, -66.98970,
,,,277.43181, -64.58970,
,,,278.66484, -66.98970,
,,,279.89787, -66.98970,
,,,281.13090, -66.98970,
,,,282.36393, -66.98970,
,,,283.59696, -66.98970,
,,,284.82999, -66.98970,
,,,286.06302, -66.98970,
,,,287.29605, -66.98970,
,,,288.52908, -66.98970,
,,,289.76211, -66.98970,
,,,290.99514, -66.98970,
,,,292.22817, -66.98970,
,,,293.46120, -66.98970,
,,,294.69423, -66.98970,
,,,295.92726, -66.98970,
,,,297.16029, -66.98970,
,,,298.39332, -66.98970,
,,,299.62635, -66.98970,
,,,300.85938, -66.98970,
,,,302.09241, -66.98970,
,,,303.32544, -66.98970,
,,,304.55847, -66.98970,
,,,305.79150, -66.98970,
,,,307.02453, -66.98970,
,,,308.25756, -66.98970,
,,,309.49059, -66.98970,
,,,310.72362, -66.98970,
,,,311.95665, -66.98970,
,,,313.18968, -66.98970,
,,,314.42271, -64.58970,
,,,315.65574, -64.58970,
,,,316.88877, -66.98970,
,,,318.12180, -66.98970,
,,,319.35483, -66.98970,
,,,320.58786, -66.98970,
,,,321.82089, -66.98970,
,,,323.05392, -66.98970,
,,,324.28695, -66.98970,
,,,325.51998, -66.98970,
,,,326.75301, -64.58970,
,,,327.98604, -66.98970,
,,,329.21907, -66.98970,
,,,330.45210, -66.98970,
,,,331.68513, -66.98970,
,,,332.91816, -64.58970,
,,,334.15119, -66.98970,
,,,335.38422, -66.98970,
,,,336.61725, -64.58970,
,,,337.85028, -64.58970,
,,,339.08331, -64.58970,
,,,340.31634, -66.98970,
,,,341.54937, -66.98970,
,,,342.78240, -66.98970,
,,,344.01543, -64.58970,
,,,345.24846, -64.58970,
,,,346.48149, -64.58970,
,,,347.71452, -64.58970,
,,,348.94755, -66.98970,
,,,350.18058, -66.98970,
,,,351.41361, -66.98970,
,,,352.64664, -66.98970,
,,,353.87967, -66.98970,
,,,355.11270, -66.98970,
,,,356.34573, -66.98970,
,,,357.57876, -66.98970,
,,,358.81179, -66.98970,
,,,360.04482, -66.98970,
,,,361.27785, -66.98970,
,,,362.51088, -66.98970,
,,,363.74391, -64.58970,
,,,364.97694, -66.98970,
,,,366.20997, -66.98970,
,,,367.44300, -66.98970,
,,,368.67603, -66.98970,
,,,369.90906, -66.98970,
,,,371.14209, -66.98970,
,,,372.37512, -66.98970,
,,,373.60815, -64.58970,
,,,374.84118, -64.58970,
,,,376.07421, -64.58970,
,,,377.30724, -64.58970,
,,,378.54027, -64.58970,
,,,379.77330, -64.58970,
,,,381.00633, -66.98970,
,,,382.23936, -64.58970,
,,,383.47239, -66.98970,
,,,384.70542, -61.38970,
,,,385.93845, -66.98970,
,,,387.17148, -66.98970,
,,,388.40451, -66.98970,
,,,389.63754, -66.98970,
,,,390.87057, -66.98970,
,,,392.10360, -66.98970,
,,,393.33663, -66.98970,
,,,394.56966, -66.98970,
,,,395.80269, -66.98970,
,,,397.03572, -66.98970,
,,,398.26875, -66.98970,
,,,399.50178, -66.98970,
,,,400.73481, -66.98970,
,,,401.96784, -66.98970,
,,,403.20087, -64.58970,
,,,404.43390, -66.98970,
,,,405.66693, -66.98970,
,,,406.89996, -66.98970,
,,,408.13299, -66.98970,
,,,409.36602, -66.98970,
,,,410.59905, -66.98970,
,,,411.83208, -66.98970,
,,,413.06511, -61.38970,
,,,414.29814, -60.58970,
,,,415.53117, -61.38970,
,,,416.76420, -66.98970,
,,,417.99723, -66.98970,
,,,419.23026, -66.98970,
,,,420.46329, -64.58970,
,,,421.69632, -66.98970,
,,,422.92935, -66.98970,
,,,424.16238, -66.98970,
,,,425.39541, -66.98970,
,,,426.62844, -66.98970,
,,,427.86147, -66.98970,
,,,429.09450, -66.98970,
,,,430.32753, -66.98970,
,,,431.56056, -66.98970,
,,,432.79359, -66.98970,
,,,434.02662, -64.58970,
,,,435.25965, -61.38970,
,,,436.49268, -64.58970,
,,,437.72571, -66.98970,
,,,438.95874, -66.98970,
,,,440.19177, -66.98970,
,,,441.42480, -66.98970,
,,,442.65783, -66.98970,
,,,443.89086, -66.98970,
,,,445.12389, -66.98970,
,,,446.35692, -64.58970,
,,,447.58995, -66.98970,
,,,448.82298, -66.98970,
,,,450.05601, -66.98970,
,,,451.28904, -66.98970,
,,,452.52207, -66.98970,
,,,453.75510, -66.98970,
,,,454.98813, -66.98970,
,,,456.22116, -66.98970,
,,,457.45419, -66.98970,
,,,458.68722, -66.98970,
,,,459.92025, -66.98970,
,,,461.15328, -64.58970,
,,,462.38631, -60.58970,
,,,463.61934, -60.58970,
,,,464.85237, -64.58970,
,,,466.08540, -64.58970,
,,,467.31843, -66.98970,
,,,468.55146, -64.58970,
,,,469.78449, -64.58970,
,,,471.01752, -66.98970,
,,,472.25055, -66.98970,
,,,473.48358, -66.98970,
,,,474.71661, -66.98970,
,,,475.94964, -66.98970,
,,,477.18267, -66.98970,
,,,478.41570, -61.38970,
,,,479.64873, -66.98970,
,,,480.88176, -66.98970,
,,,482.11479, -66.98970,
,,,483.34782, -66.98970,
,,,484.58085, -66.98970,
,,,485.81388, -66.98970,
,,,487.04691, -64.58970,
,,,488.27994, -66.98970,
,,,489.51297, -60.58970,
,,,490.74600, -61.38970,
,,,491.97903, -53.38970,
,,,493.21206, -52.18970,
,,,494.44509, -44.98970,
,,,495.67812, -35.78970,
,,,496.91115, -19.78970,
,,,498.14418,  -6.18970,
,,,499.37721,  -3.38970,
,,,500.61024,  -3.38970,
,,,501.84327,  -5.78970,
,,,503.07630, -19.38970,
,,,504.30933, -35.78970,
,,,505.54236, -44.58970,
,,,506.77539, -50.58970,
,,,508.00842, -56.18970,
,,,509.24145, -58.58970,
,,,510.47448, -64.58970,
,,,511.70751, -66.98970,
,,,512.94054, -66.98970,
,,,514.17357, -66.98970,
,,,515.40660, -64.58970,
,,,516.63963, -64.58970,
,,,517.87266, -66.98970,
,,,519.10569, -66.98970,
,,,520.33872, -66.98970,
,,,521.57175, -66.98970,
,,,522.80478, -64.58970,
,,,524.03781, -66.98970,
,,,525.27084, -66.98970,
,,,526.50387, -66.98970,
,,,527.73690, -66.98970,
,,,528.96993, -64.58970,
,,,530.20296, -66.98970,
,,,531.43599, -66.98970,
,,,532.66902, -66.98970,
,,,533.90205, -66.98970,
,,,535.13508, -66.98970,
,,,536.36811, -64.58970,
,,,537.60114, -60.58970,
,,,538.83417, -66.98970,
,,,540.06720, -66.98970,
,,,541.30023, -66.98970,
,,,542.53326, -66.98970,
,,,543.76629, -66.98970,
,,,544.99932, -66.98970,
,,,546.23235, -64.58970,
,,,547.46538, -66.98970,
,,,548.69841, -64.58970,
,,,549.93144, -64.58970,
,,,551.16447, -66.98970,
,,,552.39750, -66.98970,
,,,553.63053, -66.98970,
,,,554.86356, -66.98970,
,,,556.09659, -66.98970,
,,,557.32962, -66.98970,
,,,558.56265, -66.98970,
,,,559.79568, -66.98970,
,,,561.02871, -66.98970,
,,,562.26174, -64.58970,
,,,563.49477, -66.98970,
,,,564.72780, -66.98970,
,,,565.96083, -64.58970,
,,,567.19386, -66.98970,
,,,568.42689, -66.98970,
,,,569.65992, -66.98970,
,,,570.89295, -66.98970,
,,,572.12598, -66.98970,
,,,573.35901, -66.98970,
,,,574.59204, -66.98970,
,,,575.82507, -60.58970,
,,,577.05810, -64.58970,
,,,578.29113, -66.98970,
,,,579.52416, -66.98970,
,,,580.75719, -66.98970,
,,,581.99022, -66.98970,
,,,583.22325, -66.98970,
,,,584.45628, -66.98970,
,,,585.68931, -66.98970,
,,,586.92234, -64.58970,
,,,588.15537, -66.98970,
,,,589.38840, -66.98970,
,,,590.62143, -66.98970,
,,,591.85446, -66.98970,
,,,593.08749, -66.98970,
,,,594.32052, -66.98970,
,,,595.55355, -64.58970,
,,,596.78658, -66.98970,
,,,598.01961, -66.98970,
,,,599.25264, -66.98970,
,,,600.48567, -66.98970,
,,,601.71870, -66.98970,
,,,602.95173, -66.98970,
,,,604.18476, -66.98970,
,,,605.41779, -66.98970,
,,,606.65082, -66.98970,
,,,607.88385, -66.98970,
,,,609.11688, -66.98970,
,,,610.34991, -66.98970,
,,,611.58294, -66.98970,
,,,612.81597, -66.98970,
,,,614.04900, -66.98970,
,,,615.28203, -66.98970,
,,,616.51506, -66.98970,
,,,617.74809, -66.98970,
,,,618.98112, -66.98970,
,,,620.21415, -66.98970,
,,,621.44718, -66.98970,
,,,622.68021, -66.98970,
,,,623.91324, -66.98970,
,,,625.14627, -66.98970,
,,,626.37930, -66.98970,
,,,627.61233, -66.98970,
,,,628.84536, -66.98970,
,,,630.07839, -66.98970,
,,,631.31142, -66.98970,
,,,632.54445, -66.98970,
,,,633.77748, -66.98970,
,,,635.01051, -66.98970,
,,,636.24354, -66.98970,
,,,637.47657, -66.98970,
,,,638.70960, -66.98970,
,,,639.94263, -66.98970,
,,,641.17566, -66.98970,
,,,642.40869, -66.98970,
,,,643.64172, -66.98970,
,,,644.87475, -66.98970,
,,,646.10778, -66.98970,
,,,647.34081, -66.98970,
,,,648.57384, -66.98970,
,,,649.80687, -64.58970,
,,,651.03990, -66.98970,
,,,652.27293, -66.98970,
,,,653.50596, -66.98970,
,,,654.73899, -66.98970,
,,,655.97202, -66.98970,
,,,657.20505, -66.98970,
,,,658.43808, -66.98970,
,,,659.67111, -64.58970,
,,,660.90414, -66.98970,
,,,662.13717, -66.98970,
,,,663.37020, -66.98970,
,,,664.60323, -66.98970,
,,,665.83626, -64.58970,
,,,667.06929, -64.58970,
,,,668.30232, -66.98970,
,,,669.53535, -66.98970,
,,,670.76838, -66.98970,
,,,672.00141, -66.98970,
,,,673.23444, -66.98970,
,,,674.46747, -66.98970,
,,,675.70050, -66.98970,
,,,676.93353, -66.98970,
,,,678.16656, -66.98970,
,,,679.39959, -64.58970,
,,,680.63262, -66.98970,
,,,681.86565, -66.98970,
,,,683.09868, -66.98970,
,,,684.33171, -66.98970,
,,,685.56474, -66.98970,
,,,686.79777, -64.58970,
,,,688.03080, -66.98970,
,,,689.26383, -66.98970,
,,,690.49686, -66.98970,
,,,691.72989, -66.98970,
,,,692.96292, -66.98970,
,,,694.19595, -64.58970,
,,,695.42898, -64.58970,
,,,696.66201, -58.58970,
,,,697.89504, -64.58970,
,,,699.12807, -66.98970,
,,,700.36110, -66.98970,
,,,701.59413, -66.98970,
,,,702.82716, -66.98970,
,,,704.06019, -66.98970,
,,,705.29322, -66.98970,
,,,706.52625, -66.98970,
,,,707.75928, -66.98970,
,,,708.99231, -64.58970,
,,,710.22534, -64.58970,
,,,711.45837, -66.98970,
,,,712.69140, -64.58970,
,,,713.92443, -64.58970,
,,,715.15746, -66.98970,
,,,716.39049, -66.98970,
,,,717.62352, -66.98970,
,,,718.85655, -66.98970,
,,,720.08958, -66.98970,
,,,721.32261, -64.58970,
,,,722.55564, -66.98970,
,,,723.78867, -66.98970,
,,,725.02170, -64.58970,
,,,726.25473, -64.58970,
,,,727.48776, -64.58970,
,,,728.72079, -64.58970,
,,,729.95382, -66.98970,
,,,731.18685, -66.98970,
,,,732.41988, -66.98970,
,,,733.65291, -64.58970,
,,,734.88594, -66.98970,
,,,736.11897, -64.58970,
,,,737.35200, -64.58970,
,,,738.58503, -66.98970,
,,,739.81806, -66.98970,
,,,741.05109, -66.98970,
,,,742.28412, -66.98970,
,,,743.51715, -66.98970,
,,,744.75018, -66.98970,
,,,745.98321, -60.58970,
,,,747.21624, -64.58970,
,,,748.44927, -66.98970,
,,,749.68230, -66.98970,
,,,750.91533, -66.98970,
,,,752.14836, -66.98970,
,,,753.38139, -66.98970,
,,,754.61442, -66.98970,
,,,755.84745, -66.98970,
,,,757.08048, -66.98970,
,,,758.31351, -66.98970,
,,,759.54654, -66.98970,
,,,760.77957, -66.98970,
,,,762.01260, -66.98970,
,,,763.24563, -66.98970,
,,,764.47866, -66.98970,
,,,765.71169, -66.98970,
,,,766.94472, -61.38970,
,,,768.17775, -66.98970,
,,,769.41078, -66.98970,
,,,770.64381, -66.98970,
,,,771.87684, -66.98970,
,,,773.10987, -66.98970,
,,,774.34290, -66.98970,
,,,775.57593, -66.98970,
,,,776.80896, -66.98970,
,,,778.04199, -66.98970,
,,,779.27502, -64.58970,
,,,780.50805, -66.98970,
,,,781.74108, -64.58970,
,,,782.97411, -66.98970,
,,,784.20714, -66.98970,
,,,785.44017, -66.98970,
,,,786.67320, -66.98970,
,,,787.90623, -64.58970,
,,,789.13926, -64.58970,
,,,790.37229, -64.58970,
,,,791.60532, -66.98970,
,,,792.83835, -64.58970,
,,,794.07138, -66.98970,
,,,795.30441, -66.98970,
,,,796.53744, -66.98970,
,,,797.77047, -66.98970,
,,,799.00350, -66.98970,
,,,800.23653, -64.58970,
,,,801.46956, -66.98970,
,,,802.70259, -66.98970,
,,,803.93562, -66.98970,
,,,805.16865, -66.98970,
,,,806.40168, -64.58970,
,,,807.63471, -66.98970,
,,,808.86774, -61.38970,
,,,810.10077, -66.98970,
,,,811.33380, -64.58970,
,,,812.56683, -66.98970,
,,,813.79986, -66.98970,
,,,815.03289, -66.98970,
,,,816.26592, -64.58970,
,,,817.49895, -64.58970,
,,,818.73198, -66.98970,
,,,819.96501, -66.98970,
,,,821.19804, -66.98970,
,,,822.43107, -66.98970,
,,,823.66410, -66.98970,
,,,824.89713, -66.98970,
,,,826.13016, -66.98970,
,,,827.36319, -66.98970,
,,,828.59622, -64.58970,
,,,829.82925, -66.98970,
,,,831.06228, -66.98970,
,,,832.29531, -66.98970,
,,,833.52834, -66.98970,
,,,834.76137, -64.58970,
,,,835.99440, -66.98970,
,,,837.22743, -66.98970,
,,,838.46046, -66.98970,
,,,839.69349, -66.98970,
,,,840.92652, -66.98970,
,,,842.15955, -64.58970,
,,,843.39258, -66.98970,
,,,844.62561, -66.98970,
,,,845.85864, -66.98970,
,,,847.09167, -66.98970,
,,,848.32470, -66.98970,
,,,849.55773, -66.98970,
,,,850.79076, -66.98970,
,,,852.02379, -66.98970,
,,,853.25682, -66.98970,
,,,854.48985, -66.98970,
,,,855.72288, -66.98970,
,,,856.95591, -61.38970,
,,,858.18894, -64.58970,
,,,859.42197, -64.58970,
,,,860.65500, -66.98970,
,,,861.88803, -66.98970,
,,,863.12106, -66.98970,
,,,864.35409, -64.58970,
,,,865.58712, -66.98970,
,,,866.82015, -66.98970,
,,,868.05318, -66.98970,
,,,869.28621, -66.98970,
,,,870.51924, -66.98970,
,,,871.75227, -66.98970,
,,,872.98530, -66.98970,
,,,874.21833, -66.98970,
,,,875.45136, -66.98970,
,,,876.68439, -66.98970,
,,,877.91742, -66.98970,
,,,879.15045, -66.98970,
,,,880.38348, -66.98970,
,,,881.61651, -66.98970,
,,,882.84954, -66.98970,
,,,884.08257, -66.98970,
,,,885.31560, -64.58970,
,,,886.54863, -66.98970,
,,,887.78166, -64.58970,
,,,889.01469, -66.98970,
,,,890.24772, -66.98970,
,,,891.48075, -66.98970,
,,,892.71378, -66.98970,
,,,893.94681, -66.98970,
,,,895.17984, -66.98970,
,,,896.41287, -66.98970,
,,,897.64590, -66.98970,
,,,898.87893, -66.98970,
,,,900.11196, -66.98970,
,,,901.34499, -66.98970,
,,,902.57802, -66.98970,
,,,903.81105, -66.98970,
,,,905.04408, -66.98970,
,,,906.27711, -64.58970,
,,,907.51014, -66.98970,
,,,908.74317, -64.58970,
,,,909.97620, -66.98970,
,,,911.20923, -66.98970,
,,,912.44226, -66.98970,
,,,913.67529, -66.98970,
,,,914.90832, -66.98970,
,,,916.14135, -66.98970,
,,,917.37438, -66.98970,
,,,918.60741, -66.98970,
,,,919.84044, -66.98970,
,,,921.07347, -66.98970,
,,,922.30650, -66.98970,
,,,923.53953, -66.98970,
,,,924.77256, -66.98970,
,,,926.00559, -64.58970,
,,,927.23862, -64.58970,
,,,928.47165, -66.98970,
,,,929.70468, -66.98970,
,,,930.93771, -66.98970,
,,,932.17074, -66.98970,
,,,933.40377, -64.58970,
,,,934.63680, -66.98970,
,,,935.86983, -66.98970,
,,,937.10286, -66.98970,
,,,938.33589, -64.58970,
,,,939.56892, -66.98970,
,,,940.80195, -66.98970,
,,,942.03498, -66.98970,
,,,943.26801, -64.58970,
,,,944.50104, -66.98970,
,,,945.73407, -66.98970,
,,,946.96710, -64.58970,
,,,948.20013, -66.98970,
,,,949.43316, -66.98970,
,,,950.66619, -64.58970,
,,,951.89922, -64.58970,
,,,953.13225, -66.98970,
,,,954.36528, -66.98970,
,,,955.59831, -66.98970,
,,,956.83134, -66.98970,
,,,958.06437, -66.98970,
,,,959.29740, -66.98970,
,,,960.53043, -64.58970,
,,,961.76346, -66.98970,
,,,962.99649, -66.98970,
,,,964.22952, -66.98970,
